0 1 7168 2048 3 10
1 1 84992 2048 3 10
2 1 83968 2048 3 10
3 1 43008 2048 3 10
4 1 52224 2048 3 10
5 1 73728 2048 3 10
6 1 97280 2048 3 10
7 1 32768 2048 3 10
8 1 48128 2048 3 10
9 1 23552 2048 3 10
10 1 76800 2048 3 10
11 1 10240 2048 3 10
12 1 18432 2048 3 10
13 1 13312 2048 3 10
14 1 31744 2048 3 10
15 1 64512 2048 3 10
16 1 15360 2048 3 10
17 1 50176 2048 3 10
18 1 101376 2048 3 10
19 1 47104 2048 3 10
20 1 6144 2048 3 10
21 1 79872 2048 3 10
22 1 93184 2048 3 10
23 1 3072 2048 3 10
24 1 37888 2048 3 10
25 1 59392 2048 3 10
26 1 71680 2048 3 10
27 1 75776 2048 3 10
28 1 4096 2048 3 10
29 1 78848 2048 3 10
30 1 44032 2048 3 10
31 1 2048 2048 3 10
32 1 95232 2048 3 10
33 1 99328 2048 3 10
34 1 90112 2048 3 10
35 1 92160 2048 3 10
36 1 89088 2048 3 10
37 1 54272 2048 3 10
38 1 38912 2048 3 10
39 1 87040 2048 3 10
40 1 67584 2048 3 10
41 1 49152 2048 3 10
42 1 57344 2048 3 10
43 1 29696 2048 3 10
44 1 53248 2048 3 10
45 1 46080 2048 3 10
46 1 100352 2048 3 10
47 1 8192 2048 3 10
48 1 35840 2048 3 10
49 1 68608 2048 3 10
50 1 1024 2048 3 10
51 1 19456 2048 3 10
52 1 5120 2048 3 10
53 1 65536 2048 3 10
54 1 25600 2048 3 10
55 1 26624 2048 3 10
56 1 17408 2048 3 10
57 1 81920 2048 3 10
58 1 86016 2048 3 10
59 1 91136 2048 3 10
60 1 21504 2048 3 10
61 1 27648 2048 3 10
62 1 58368 2048 3 10
63 1 72704 2048 3 10
64 1 82944 2048 3 10
65 1 51200 2048 3 10
66 1 56320 2048 3 10
67 1 41984 2048 3 10
68 1 9216 2048 3 10
69 1 96256 2048 3 10
70 1 70656 2048 3 10
71 1 88064 2048 3 10
72 1 11264 2048 3 10
73 1 77824 2048 3 10
74 1 45056 2048 3 10
75 1 14336 2048 3 10
76 1 80896 2048 3 10
77 1 39936 2048 3 10
78 1 34816 2048 3 10
79 1 24576 2048 3 10
80 1 69632 2048 3 10
81 1 63488 2048 3 10
82 1 20480 2048 3 10
83 1 55296 2048 3 10
84 1 94208 2048 3 10
85 1 60416 2048 3 10
86 1 102400 2048 3 10
87 1 12288 2048 3 10
88 1 40960 2048 3 10
89 1 66560 2048 3 10
90 1 74752 2048 3 10
91 1 16384 2048 3 10
92 1 98304 2048 3 10
93 1 30720 2048 3 10
94 1 22528 2048 3 10
95 1 62464 2048 3 10
96 1 33792 2048 3 10
97 1 36864 2048 3 10
98 1 61440 2048 3 10
99 1 28672 2048 3 10
100 2 7168 2048 3 10
101 2 84992 2048 3 10
102 2 83968 2048 3 10
103 2 43008 2048 3 10
104 2 52224 2048 3 10
105 2 73728 2048 3 10
106 2 97280 2048 3 10
107 2 32768 2048 3 10
108 2 48128 2048 3 10
109 2 23552 2048 3 10
110 2 76800 2048 3 10
111 2 10240 2048 3 10
112 2 18432 2048 3 10
113 2 13312 2048 3 10
114 2 31744 2048 3 10
115 2 64512 2048 3 10
116 2 15360 2048 3 10
117 2 50176 2048 3 10
118 2 101376 2048 3 10
119 2 47104 2048 3 10
120 2 6144 2048 3 10
121 2 79872 2048 3 10
122 2 93184 2048 3 10
123 2 3072 2048 3 10
124 2 37888 2048 3 10
125 2 59392 2048 3 10
126 2 71680 2048 3 10
127 2 75776 2048 3 10
128 2 4096 2048 3 10
129 2 78848 2048 3 10
130 2 44032 2048 3 10
131 2 2048 2048 3 10
132 2 95232 2048 3 10
133 2 99328 2048 3 10
134 2 90112 2048 3 10
135 2 92160 2048 3 10
136 2 89088 2048 3 10
137 2 54272 2048 3 10
138 2 38912 2048 3 10
139 2 87040 2048 3 10
140 2 67584 2048 3 10
141 2 49152 2048 3 10
142 2 57344 2048 3 10
143 2 29696 2048 3 10
144 2 53248 2048 3 10
145 2 46080 2048 3 10
146 2 100352 2048 3 10
147 2 8192 2048 3 10
148 2 35840 2048 3 10
149 2 68608 2048 3 10
150 2 1024 2048 3 10
151 2 19456 2048 3 10
152 2 5120 2048 3 10
153 2 65536 2048 3 10
154 2 25600 2048 3 10
155 2 26624 2048 3 10
156 2 17408 2048 3 10
157 2 81920 2048 3 10
158 2 86016 2048 3 10
159 2 91136 2048 3 10
160 2 21504 2048 3 10
161 2 27648 2048 3 10
162 2 58368 2048 3 10
163 2 72704 2048 3 10
164 2 82944 2048 3 10
165 2 51200 2048 3 10
166 2 56320 2048 3 10
167 2 41984 2048 3 10
168 2 9216 2048 3 10
169 2 96256 2048 3 10
170 2 70656 2048 3 10
171 2 88064 2048 3 10
172 2 11264 2048 3 10
173 2 77824 2048 3 10
174 2 45056 2048 3 10
175 2 14336 2048 3 10
176 2 80896 2048 3 10
177 2 39936 2048 3 10
178 2 34816 2048 3 10
179 2 24576 2048 3 10
180 2 69632 2048 3 10
181 2 63488 2048 3 10
182 2 20480 2048 3 10
183 2 55296 2048 3 10
184 2 94208 2048 3 10
185 2 60416 2048 3 10
186 2 102400 2048 3 10
187 2 12288 2048 3 10
188 2 40960 2048 3 10
189 2 66560 2048 3 10
190 2 74752 2048 3 10
191 2 16384 2048 3 10
192 2 98304 2048 3 10
193 2 30720 2048 3 10
194 2 22528 2048 3 10
195 2 62464 2048 3 10
196 2 33792 2048 3 10
197 2 36864 2048 3 10
198 2 61440 2048 3 10
199 2 28672 2048 3 10
200 4 7168 2048 3 10
201 4 84992 2048 3 10
202 4 83968 2048 3 10
203 4 43008 2048 3 10
204 4 52224 2048 3 10
205 4 73728 2048 3 10
206 4 97280 2048 3 10
207 4 32768 2048 3 10
208 4 48128 2048 3 10
209 4 23552 2048 3 10
210 4 76800 2048 3 10
211 4 10240 2048 3 10
212 4 18432 2048 3 10
213 4 13312 2048 3 10
214 4 31744 2048 3 10
215 4 64512 2048 3 10
216 4 15360 2048 3 10
217 4 50176 2048 3 10
218 4 101376 2048 3 10
219 4 47104 2048 3 10
220 4 6144 2048 3 10
221 4 79872 2048 3 10
222 4 93184 2048 3 10
223 4 3072 2048 3 10
224 4 37888 2048 3 10
225 4 59392 2048 3 10
226 4 71680 2048 3 10
227 4 75776 2048 3 10
228 4 4096 2048 3 10
229 4 78848 2048 3 10
230 4 44032 2048 3 10
231 4 2048 2048 3 10
232 4 95232 2048 3 10
233 4 99328 2048 3 10
234 4 90112 2048 3 10
235 4 92160 2048 3 10
236 4 89088 2048 3 10
237 4 54272 2048 3 10
238 4 38912 2048 3 10
239 4 87040 2048 3 10
240 4 67584 2048 3 10
241 4 49152 2048 3 10
242 4 57344 2048 3 10
243 4 29696 2048 3 10
244 4 53248 2048 3 10
245 4 46080 2048 3 10
246 4 100352 2048 3 10
247 4 8192 2048 3 10
248 4 35840 2048 3 10
249 4 68608 2048 3 10
250 4 1024 2048 3 10
251 4 19456 2048 3 10
252 4 5120 2048 3 10
253 4 65536 2048 3 10
254 4 25600 2048 3 10
255 4 26624 2048 3 10
256 4 17408 2048 3 10
257 4 81920 2048 3 10
258 4 86016 2048 3 10
259 4 91136 2048 3 10
260 4 21504 2048 3 10
261 4 27648 2048 3 10
262 4 58368 2048 3 10
263 4 72704 2048 3 10
264 4 82944 2048 3 10
265 4 51200 2048 3 10
266 4 56320 2048 3 10
267 4 41984 2048 3 10
268 4 9216 2048 3 10
269 4 96256 2048 3 10
270 4 70656 2048 3 10
271 4 88064 2048 3 10
272 4 11264 2048 3 10
273 4 77824 2048 3 10
274 4 45056 2048 3 10
275 4 14336 2048 3 10
276 4 80896 2048 3 10
277 4 39936 2048 3 10
278 4 34816 2048 3 10
279 4 24576 2048 3 10
280 4 69632 2048 3 10
281 4 63488 2048 3 10
282 4 20480 2048 3 10
283 4 55296 2048 3 10
284 4 94208 2048 3 10
285 4 60416 2048 3 10
286 4 102400 2048 3 10
287 4 12288 2048 3 10
288 4 40960 2048 3 10
289 4 66560 2048 3 10
290 4 74752 2048 3 10
291 4 16384 2048 3 10
292 4 98304 2048 3 10
293 4 30720 2048 3 10
294 4 22528 2048 3 10
295 4 62464 2048 3 10
296 4 33792 2048 3 10
297 4 36864 2048 3 10
298 4 61440 2048 3 10
299 4 28672 2048 3 10
300 1 74752 2048 3 10
301 1 79872 2048 3 10
302 1 76800 2048 3 10
303 1 97280 2048 3 10
304 1 52224 2048 3 10
305 1 80896 2048 3 10
306 1 82944 2048 3 10
307 1 50176 2048 3 10
308 1 20480 2048 3 10
309 1 14336 2048 3 10
310 1 59392 2048 3 10
311 1 64512 2048 3 10
312 1 2048 2048 3 10
313 1 67584 2048 3 10
314 1 62464 2048 3 10
315 1 61440 2048 3 10
316 1 23552 2048 3 10
317 1 40960 2048 3 10
318 1 10240 2048 3 10
319 1 72704 2048 3 10
320 1 5120 2048 3 10
321 1 73728 2048 3 10
322 1 27648 2048 3 10
323 1 56320 2048 3 10
324 1 71680 2048 3 10
325 1 8192 2048 3 10
326 1 48128 2048 3 10
327 1 36864 2048 3 10
328 1 83968 2048 3 10
329 1 19456 2048 3 10
330 1 3072 2048 3 10
331 1 44032 2048 3 10
332 1 102400 2048 3 10
333 1 77824 2048 3 10
334 1 21504 2048 3 10
335 1 15360 2048 3 10
336 1 90112 2048 3 10
337 1 30720 2048 3 10
338 1 28672 2048 3 10
339 1 1024 2048 3 10
340 1 94208 2048 3 10
341 1 95232 2048 3 10
342 1 41984 2048 3 10
343 1 47104 2048 3 10
344 1 99328 2048 3 10
345 1 57344 2048 3 10
346 1 22528 2048 3 10
347 1 16384 2048 3 10
348 1 29696 2048 3 10
349 1 60416 2048 3 10
350 1 31744 2048 3 10
351 1 9216 2048 3 10
352 1 92160 2048 3 10
353 1 63488 2048 3 10
354 1 25600 2048 3 10
355 1 91136 2048 3 10
356 1 39936 2048 3 10
357 1 12288 2048 3 10
358 1 89088 2048 3 10
359 1 34816 2048 3 10
360 1 70656 2048 3 10
361 1 35840 2048 3 10
362 1 18432 2048 3 10
363 1 75776 2048 3 10
364 1 68608 2048 3 10
365 1 51200 2048 3 10
366 1 37888 2048 3 10
367 1 100352 2048 3 10
368 1 32768 2048 3 10
369 1 86016 2048 3 10
370 1 93184 2048 3 10
371 1 43008 2048 3 10
372 1 87040 2048 3 10
373 1 4096 2048 3 10
374 1 38912 2048 3 10
375 1 46080 2048 3 10
376 1 81920 2048 3 10
377 1 24576 2048 3 10
378 1 53248 2048 3 10
379 1 17408 2048 3 10
380 1 69632 2048 3 10
381 1 84992 2048 3 10
382 1 98304 2048 3 10
383 1 88064 2048 3 10
384 1 13312 2048 3 10
385 1 96256 2048 3 10
386 1 6144 2048 3 10
387 1 26624 2048 3 10
388 1 7168 2048 3 10
389 1 58368 2048 3 10
390 1 101376 2048 3 10
391 1 11264 2048 3 10
392 1 65536 2048 3 10
393 1 78848 2048 3 10
394 1 45056 2048 3 10
395 1 33792 2048 3 10
396 1 54272 2048 3 10
397 1 55296 2048 3 10
398 1 66560 2048 3 10
399 1 49152 2048 3 10
400 2 74752 2048 3 10
401 2 79872 2048 3 10
402 2 76800 2048 3 10
403 2 97280 2048 3 10
404 2 52224 2048 3 10
405 2 80896 2048 3 10
406 2 82944 2048 3 10
407 2 50176 2048 3 10
408 2 20480 2048 3 10
409 2 14336 2048 3 10
410 2 59392 2048 3 10
411 2 64512 2048 3 10
412 2 2048 2048 3 10
413 2 67584 2048 3 10
414 2 62464 2048 3 10
415 2 61440 2048 3 10
416 2 23552 2048 3 10
417 2 40960 2048 3 10
418 2 10240 2048 3 10
419 2 72704 2048 3 10
420 2 5120 2048 3 10
421 2 73728 2048 3 10
422 2 27648 2048 3 10
423 2 56320 2048 3 10
424 2 71680 2048 3 10
425 2 8192 2048 3 10
426 2 48128 2048 3 10
427 2 36864 2048 3 10
428 2 83968 2048 3 10
429 2 19456 2048 3 10
430 2 3072 2048 3 10
431 2 44032 2048 3 10
432 2 102400 2048 3 10
433 2 77824 2048 3 10
434 2 21504 2048 3 10
435 2 15360 2048 3 10
436 2 90112 2048 3 10
437 2 30720 2048 3 10
438 2 28672 2048 3 10
439 2 1024 2048 3 10
440 2 94208 2048 3 10
441 2 95232 2048 3 10
442 2 41984 2048 3 10
443 2 47104 2048 3 10
444 2 99328 2048 3 10
445 2 57344 2048 3 10
446 2 22528 2048 3 10
447 2 16384 2048 3 10
448 2 29696 2048 3 10
449 2 60416 2048 3 10
450 2 31744 2048 3 10
451 2 9216 2048 3 10
452 2 92160 2048 3 10
453 2 63488 2048 3 10
454 2 25600 2048 3 10
455 2 91136 2048 3 10
456 2 39936 2048 3 10
457 2 12288 2048 3 10
458 2 89088 2048 3 10
459 2 34816 2048 3 10
460 2 70656 2048 3 10
461 2 35840 2048 3 10
462 2 18432 2048 3 10
463 2 75776 2048 3 10
464 2 68608 2048 3 10
465 2 51200 2048 3 10
466 2 37888 2048 3 10
467 2 100352 2048 3 10
468 2 32768 2048 3 10
469 2 86016 2048 3 10
470 2 93184 2048 3 10
471 2 43008 2048 3 10
472 2 87040 2048 3 10
473 2 4096 2048 3 10
474 2 38912 2048 3 10
475 2 46080 2048 3 10
476 2 81920 2048 3 10
477 2 24576 2048 3 10
478 2 53248 2048 3 10
479 2 17408 2048 3 10
480 2 69632 2048 3 10
481 2 84992 2048 3 10
482 2 98304 2048 3 10
483 2 88064 2048 3 10
484 2 13312 2048 3 10
485 2 96256 2048 3 10
486 2 6144 2048 3 10
487 2 26624 2048 3 10
488 2 7168 2048 3 10
489 2 58368 2048 3 10
490 2 101376 2048 3 10
491 2 11264 2048 3 10
492 2 65536 2048 3 10
493 2 78848 2048 3 10
494 2 45056 2048 3 10
495 2 33792 2048 3 10
496 2 54272 2048 3 10
497 2 55296 2048 3 10
498 2 66560 2048 3 10
499 2 49152 2048 3 10
500 4 74752 2048 3 10
501 4 79872 2048 3 10
502 4 76800 2048 3 10
503 4 97280 2048 3 10
504 4 52224 2048 3 10
505 4 80896 2048 3 10
506 4 82944 2048 3 10
507 4 50176 2048 3 10
508 4 20480 2048 3 10
509 4 14336 2048 3 10
510 4 59392 2048 3 10
511 4 64512 2048 3 10
512 4 2048 2048 3 10
513 4 67584 2048 3 10
514 4 62464 2048 3 10
515 4 61440 2048 3 10
516 4 23552 2048 3 10
517 4 40960 2048 3 10
518 4 10240 2048 3 10
519 4 72704 2048 3 10
520 4 5120 2048 3 10
521 4 73728 2048 3 10
522 4 27648 2048 3 10
523 4 56320 2048 3 10
524 4 71680 2048 3 10
525 4 8192 2048 3 10
526 4 48128 2048 3 10
527 4 36864 2048 3 10
528 4 83968 2048 3 10
529 4 19456 2048 3 10
530 4 3072 2048 3 10
531 4 44032 2048 3 10
532 4 102400 2048 3 10
533 4 77824 2048 3 10
534 4 21504 2048 3 10
535 4 15360 2048 3 10
536 4 90112 2048 3 10
537 4 30720 2048 3 10
538 4 28672 2048 3 10
539 4 1024 2048 3 10
540 4 94208 2048 3 10
541 4 95232 2048 3 10
542 4 41984 2048 3 10
543 4 47104 2048 3 10
544 4 99328 2048 3 10
545 4 57344 2048 3 10
546 4 22528 2048 3 10
547 4 16384 2048 3 10
548 4 29696 2048 3 10
549 4 60416 2048 3 10
550 4 31744 2048 3 10
551 4 9216 2048 3 10
552 4 92160 2048 3 10
553 4 63488 2048 3 10
554 4 25600 2048 3 10
555 4 91136 2048 3 10
556 4 39936 2048 3 10
557 4 12288 2048 3 10
558 4 89088 2048 3 10
559 4 34816 2048 3 10
560 4 70656 2048 3 10
561 4 35840 2048 3 10
562 4 18432 2048 3 10
563 4 75776 2048 3 10
564 4 68608 2048 3 10
565 4 51200 2048 3 10
566 4 37888 2048 3 10
567 4 100352 2048 3 10
568 4 32768 2048 3 10
569 4 86016 2048 3 10
570 4 93184 2048 3 10
571 4 43008 2048 3 10
572 4 87040 2048 3 10
573 4 4096 2048 3 10
574 4 38912 2048 3 10
575 4 46080 2048 3 10
576 4 81920 2048 3 10
577 4 24576 2048 3 10
578 4 53248 2048 3 10
579 4 17408 2048 3 10
580 4 69632 2048 3 10
581 4 84992 2048 3 10
582 4 98304 2048 3 10
583 4 88064 2048 3 10
584 4 13312 2048 3 10
585 4 96256 2048 3 10
586 4 6144 2048 3 10
587 4 26624 2048 3 10
588 4 7168 2048 3 10
589 4 58368 2048 3 10
590 4 101376 2048 3 10
591 4 11264 2048 3 10
592 4 65536 2048 3 10
593 4 78848 2048 3 10
594 4 45056 2048 3 10
595 4 33792 2048 3 10
596 4 54272 2048 3 10
597 4 55296 2048 3 10
598 4 66560 2048 3 10
599 4 49152 2048 3 10
