############################################
# Tue May 15 16:52:19 CEST 2012
############################################
# EXECUTION PRIORITY: 
# FILE NAME:  data/Snow2Data17.dat
############################################
# VERSION:
# Linux version 3.1.0-1-amd64 (Debian 3.1.8-2) (ben@decadent.org.uk) (gcc version 4.6.2 (Debian 4.6.2-11) ) #1 SMP Tue Jan 10 05:01:58 UTC 2012
############################################
# CPU INFO:
# processor	: 0
# vendor_id	: GenuineIntel
# cpu family	: 6
# model		: 42
# model name	: Intel(R) Core(TM) i7-2600 CPU @ 3.40GHz
# stepping	: 7
# cpu MHz		: 1600.000
# cache size	: 8192 KB
# physical id	: 0
# siblings	: 8
# core id		: 0
# cpu cores	: 4
# apicid		: 0
# initial apicid	: 0
# fpu		: yes
# fpu_exception	: yes
# cpuid level	: 13
# wp		: yes
# flags		: fpu vme de pse tsc msr pae mce cx8 apic sep mtrr pge mca cmov pat pse36 clflush dts acpi mmx fxsr sse sse2 ss ht tm pbe syscall nx rdtscp lm constant_tsc arch_perfmon pebs bts rep_good nopl xtopology nonstop_tsc aperfmperf pni pclmulqdq dtes64 monitor ds_cpl vmx smx est tm2 ssse3 cx16 xtpr pdcm sse4_1 sse4_2 x2apic popcnt aes xsave avx lahf_lm ida arat epb xsaveopt pln pts dts tpr_shadow vnmi flexpriority ept vpid
# bogomips	: 6783.28
# clflush size	: 64
# cache_alignment	: 64
# address sizes	: 36 bits physical, 48 bits virtual
# power management:
# 
# processor	: 1
# vendor_id	: GenuineIntel
# cpu family	: 6
# model		: 42
# model name	: Intel(R) Core(TM) i7-2600 CPU @ 3.40GHz
# stepping	: 7
# cpu MHz		: 1600.000
# cache size	: 8192 KB
# physical id	: 0
# siblings	: 8
# core id		: 1
# cpu cores	: 4
# apicid		: 2
# initial apicid	: 2
# fpu		: yes
# fpu_exception	: yes
# cpuid level	: 13
# wp		: yes
# flags		: fpu vme de pse tsc msr pae mce cx8 apic sep mtrr pge mca cmov pat pse36 clflush dts acpi mmx fxsr sse sse2 ss ht tm pbe syscall nx rdtscp lm constant_tsc arch_perfmon pebs bts rep_good nopl xtopology nonstop_tsc aperfmperf pni pclmulqdq dtes64 monitor ds_cpl vmx smx est tm2 ssse3 cx16 xtpr pdcm sse4_1 sse4_2 x2apic popcnt aes xsave avx lahf_lm ida arat epb xsaveopt pln pts dts tpr_shadow vnmi flexpriority ept vpid
# bogomips	: 6784.26
# clflush size	: 64
# cache_alignment	: 64
# address sizes	: 36 bits physical, 48 bits virtual
# power management:
# 
# processor	: 2
# vendor_id	: GenuineIntel
# cpu family	: 6
# model		: 42
# model name	: Intel(R) Core(TM) i7-2600 CPU @ 3.40GHz
# stepping	: 7
# cpu MHz		: 1600.000
# cache size	: 8192 KB
# physical id	: 0
# siblings	: 8
# core id		: 2
# cpu cores	: 4
# apicid		: 4
# initial apicid	: 4
# fpu		: yes
# fpu_exception	: yes
# cpuid level	: 13
# wp		: yes
# flags		: fpu vme de pse tsc msr pae mce cx8 apic sep mtrr pge mca cmov pat pse36 clflush dts acpi mmx fxsr sse sse2 ss ht tm pbe syscall nx rdtscp lm constant_tsc arch_perfmon pebs bts rep_good nopl xtopology nonstop_tsc aperfmperf pni pclmulqdq dtes64 monitor ds_cpl vmx smx est tm2 ssse3 cx16 xtpr pdcm sse4_1 sse4_2 x2apic popcnt aes xsave avx lahf_lm ida arat epb xsaveopt pln pts dts tpr_shadow vnmi flexpriority ept vpid
# bogomips	: 6784.26
# clflush size	: 64
# cache_alignment	: 64
# address sizes	: 36 bits physical, 48 bits virtual
# power management:
# 
# processor	: 3
# vendor_id	: GenuineIntel
# cpu family	: 6
# model		: 42
# model name	: Intel(R) Core(TM) i7-2600 CPU @ 3.40GHz
# stepping	: 7
# cpu MHz		: 1600.000
# cache size	: 8192 KB
# physical id	: 0
# siblings	: 8
# core id		: 3
# cpu cores	: 4
# apicid		: 6
# initial apicid	: 6
# fpu		: yes
# fpu_exception	: yes
# cpuid level	: 13
# wp		: yes
# flags		: fpu vme de pse tsc msr pae mce cx8 apic sep mtrr pge mca cmov pat pse36 clflush dts acpi mmx fxsr sse sse2 ss ht tm pbe syscall nx rdtscp lm constant_tsc arch_perfmon pebs bts rep_good nopl xtopology nonstop_tsc aperfmperf pni pclmulqdq dtes64 monitor ds_cpl vmx smx est tm2 ssse3 cx16 xtpr pdcm sse4_1 sse4_2 x2apic popcnt aes xsave avx lahf_lm ida arat epb xsaveopt pln pts dts tpr_shadow vnmi flexpriority ept vpid
# bogomips	: 6784.26
# clflush size	: 64
# cache_alignment	: 64
# address sizes	: 36 bits physical, 48 bits virtual
# power management:
# 
# processor	: 4
# vendor_id	: GenuineIntel
# cpu family	: 6
# model		: 42
# model name	: Intel(R) Core(TM) i7-2600 CPU @ 3.40GHz
# stepping	: 7
# cpu MHz		: 3401.000
# cache size	: 8192 KB
# physical id	: 0
# siblings	: 8
# core id		: 0
# cpu cores	: 4
# apicid		: 1
# initial apicid	: 1
# fpu		: yes
# fpu_exception	: yes
# cpuid level	: 13
# wp		: yes
# flags		: fpu vme de pse tsc msr pae mce cx8 apic sep mtrr pge mca cmov pat pse36 clflush dts acpi mmx fxsr sse sse2 ss ht tm pbe syscall nx rdtscp lm constant_tsc arch_perfmon pebs bts rep_good nopl xtopology nonstop_tsc aperfmperf pni pclmulqdq dtes64 monitor ds_cpl vmx smx est tm2 ssse3 cx16 xtpr pdcm sse4_1 sse4_2 x2apic popcnt aes xsave avx lahf_lm ida arat epb xsaveopt pln pts dts tpr_shadow vnmi flexpriority ept vpid
# bogomips	: 6784.27
# clflush size	: 64
# cache_alignment	: 64
# address sizes	: 36 bits physical, 48 bits virtual
# power management:
# 
# processor	: 5
# vendor_id	: GenuineIntel
# cpu family	: 6
# model		: 42
# model name	: Intel(R) Core(TM) i7-2600 CPU @ 3.40GHz
# stepping	: 7
# cpu MHz		: 1600.000
# cache size	: 8192 KB
# physical id	: 0
# siblings	: 8
# core id		: 1
# cpu cores	: 4
# apicid		: 3
# initial apicid	: 3
# fpu		: yes
# fpu_exception	: yes
# cpuid level	: 13
# wp		: yes
# flags		: fpu vme de pse tsc msr pae mce cx8 apic sep mtrr pge mca cmov pat pse36 clflush dts acpi mmx fxsr sse sse2 ss ht tm pbe syscall nx rdtscp lm constant_tsc arch_perfmon pebs bts rep_good nopl xtopology nonstop_tsc aperfmperf pni pclmulqdq dtes64 monitor ds_cpl vmx smx est tm2 ssse3 cx16 xtpr pdcm sse4_1 sse4_2 x2apic popcnt aes xsave avx lahf_lm ida arat epb xsaveopt pln pts dts tpr_shadow vnmi flexpriority ept vpid
# bogomips	: 6784.26
# clflush size	: 64
# cache_alignment	: 64
# address sizes	: 36 bits physical, 48 bits virtual
# power management:
# 
# processor	: 6
# vendor_id	: GenuineIntel
# cpu family	: 6
# model		: 42
# model name	: Intel(R) Core(TM) i7-2600 CPU @ 3.40GHz
# stepping	: 7
# cpu MHz		: 1600.000
# cache size	: 8192 KB
# physical id	: 0
# siblings	: 8
# core id		: 2
# cpu cores	: 4
# apicid		: 5
# initial apicid	: 5
# fpu		: yes
# fpu_exception	: yes
# cpuid level	: 13
# wp		: yes
# flags		: fpu vme de pse tsc msr pae mce cx8 apic sep mtrr pge mca cmov pat pse36 clflush dts acpi mmx fxsr sse sse2 ss ht tm pbe syscall nx rdtscp lm constant_tsc arch_perfmon pebs bts rep_good nopl xtopology nonstop_tsc aperfmperf pni pclmulqdq dtes64 monitor ds_cpl vmx smx est tm2 ssse3 cx16 xtpr pdcm sse4_1 sse4_2 x2apic popcnt aes xsave avx lahf_lm ida arat epb xsaveopt pln pts dts tpr_shadow vnmi flexpriority ept vpid
# bogomips	: 6784.26
# clflush size	: 64
# cache_alignment	: 64
# address sizes	: 36 bits physical, 48 bits virtual
# power management:
# 
# processor	: 7
# vendor_id	: GenuineIntel
# cpu family	: 6
# model		: 42
# model name	: Intel(R) Core(TM) i7-2600 CPU @ 3.40GHz
# stepping	: 7
# cpu MHz		: 1600.000
# cache size	: 8192 KB
# physical id	: 0
# siblings	: 8
# core id		: 3
# cpu cores	: 4
# apicid		: 7
# initial apicid	: 7
# fpu		: yes
# fpu_exception	: yes
# cpuid level	: 13
# wp		: yes
# flags		: fpu vme de pse tsc msr pae mce cx8 apic sep mtrr pge mca cmov pat pse36 clflush dts acpi mmx fxsr sse sse2 ss ht tm pbe syscall nx rdtscp lm constant_tsc arch_perfmon pebs bts rep_good nopl xtopology nonstop_tsc aperfmperf pni pclmulqdq dtes64 monitor ds_cpl vmx smx est tm2 ssse3 cx16 xtpr pdcm sse4_1 sse4_2 x2apic popcnt aes xsave avx lahf_lm ida arat epb xsaveopt pln pts dts tpr_shadow vnmi flexpriority ept vpid
# bogomips	: 6784.27
# clflush size	: 64
# cache_alignment	: 64
# address sizes	: 36 bits physical, 48 bits virtual
# power management:
# 
############################################
# COMPILATION:
# gcc  -I$HOME/include -L$HOME/lib/ -g -w  -O3 -DVERBOSE -DTYPE="int" -DVECTOR="1" -msse3 -mavx -D_GNU_SOURCE -c -o kernel.o kernel.c
# gcc  -I$HOME/include -L$HOME/lib/ -g -w  -O3 -DVERBOSE -DTYPE="int" -DVECTOR="1" -msse3 -mavx -D_GNU_SOURCE kernel.o  -lm -lrt -o kernel
# rm kernel.o
############################################
# #PARAMETERS FOR INPUT GENERATOR:
# 42	=SEED           //Seed for random number generator 
# 1	=N_ARRAYS 	//Number of arrays
# 2	=N_REP 		//Number of repetitions of the whole measerement for 1 stride
# 2048	=N_CYCLES 	//Number of loops for 1 N_REP, for small values of memory should be 32768
# 1	=MIN_MEM	//Starting array size, the smallest size; When MODE=4 these values are ignored
# 100	=MAX_MEM 	//Ending array size, the biggest size; When MODE=4 these values are ignored
# 1024	=TYPE_MEM	//The size of one block in memory, if 1024=>1KB
# 1	=MIN_STRIDE	//Starting stride size, the smallest size
# 4	=MAX_STRIDE	//Ending stride size, the biggest size
# 3	=MODE		//Mode for producing input file: 1=REGULAR; 2=INVERT; 3=RANDOM; 123=ALL 3 MODES; 4=FIXED MEMORY; 5=FIXED STRIDES
# #THESE PARAMETERS ARE USED ONLY IN SPECIAL CASES (MODE=4 || MODE=5):
# 1 2 4 8 16 32 64 128 256 512 1024 2048 4096	0//For FIXED MEMORY MODE: Values of the MEM, 0 must be at the end(was easier to implement)
# 1 13 17 3 9					0//For FIXED STRIDES MODE: Values of the STRIDE, 0 must be at the end(was easier to implement)
# 
# !PARAMETERS FOR KERNEL:
# 3	=GCC		//GCC optimization 0=default; 2=-02; 3=-03
# 7	=CORE		//Core on which the program will be executed. 99 is for not specified.
# 3	=ALLOCTYPE	//Type of the buffer: 1=int; 2=long long int
# 42	=SEED           //Seed for random number generator 
# 10	=EXEMODE	//Execution mode: 1=STANDARD; 2=LOOP UNROLLING; 3=SAME NUMBER OF ACCESSES PER MEMORY SIZE
# 1024	=ACCESSES_SQR	//If EXEMODE=3, the number of total accesses for each memory size is ACCESSES_SQR*ACCESSES_SQR
# 1	=ALLOCMODE	//Allocation mode of memory: 1=MALLOC; 2=STATIC FOR BIGGEST MEMORY SIZE; 3=ALLOCATING WITHOUT FREEING; 4=ONE BIG FOR RANDOM ACCESS
# 2100	=STATIC_SIZE	//If ALLOCMODE=2 or ALLOCMODE=4, this is the size of staticly allocated memory in TYPE_MEM, 2100 default value for ALLOCMODE=4
# 1024	=TYPE_MEM	//The size of one block in memory, if 1024=>1KB

################################################
# MEASUREMENTS=
 NUM	 STRIDE	 SIZE	 ADDRESS    START_TIME		 END_TIME		 TIME		 BANDWIDTH	 MODE	 EXEMODE
  0	 1	 7168	 (nil)  1337093539.496057	 1337093539.497129	 0.001072	 13058.592974	 3	 10
  1	 1	 84992	 (nil)  1337093539.497152	 1337093539.510799	 0.013647	 12163.725207	 3	 10
  2	 1	 83968	 (nil)  1337093539.510818	 1337093539.524015	 0.013197	 12427.328544	 3	 10
  3	 1	 43008	 (nil)  1337093539.524026	 1337093539.530555	 0.006528	 12867.390815	 3	 10
  4	 1	 52224	 (nil)  1337093539.530561	 1337093539.538392	 0.007831	 13025.464144	 3	 10
  5	 1	 73728	 (nil)  1337093539.538400	 1337093539.549583	 0.011182	 12877.535354	 3	 10
  6	 1	 97280	 (nil)  1337093539.549590	 1337093539.565506	 0.015916	 11937.527276	 3	 10
  7	 1	 32768	 (nil)  1337093539.565520	 1337093539.570302	 0.004782	 13384.316425	 3	 10
  8	 1	 48128	 (nil)  1337093539.570309	 1337093539.577595	 0.007286	 12902.060459	 3	 10
  9	 1	 23552	 (nil)  1337093539.577602	 1337093539.580958	 0.003356	 13706.806055	 3	 10
  10	 1	 76800	 (nil)  1337093539.580965	 1337093539.593797	 0.012832	 11689.333974	 3	 10
  11	 1	 10240	 (nil)  1337093539.593805	 1337093539.595302	 0.001497	 13358.804120	 3	 10
  12	 1	 18432	 (nil)  1337093539.595309	 1337093539.598017	 0.002708	 13294.331703	 3	 10
  13	 1	 13312	 (nil)  1337093539.598023	 1337093539.599990	 0.001966	 13224.909422	 3	 10
  14	 1	 31744	 (nil)  1337093539.599996	 1337093539.605383	 0.005387	 11509.171696	 3	 10
  15	 1	 64512	 (nil)  1337093539.605393	 1337093539.616617	 0.011225	 11225.396337	 3	 10
  16	 1	 15360	 (nil)  1337093539.616626	 1337093539.618782	 0.002157	 13910.746794	 3	 10
  17	 1	 50176	 (nil)  1337093539.618788	 1337093539.627560	 0.008771	 11172.598404	 3	 10
  18	 1	 101376	 (nil)  1337093539.627570	 1337093539.643131	 0.015561	 12723.896396	 3	 10
  19	 1	 47104	 (nil)  1337093539.643145	 1337093539.651552	 0.008407	 10943.840848	 3	 10
  20	 1	 6144	 (nil)  1337093539.651562	 1337093539.652494	 0.000932	 12882.171075	 3	 10
  21	 1	 79872	 (nil)  1337093539.652500	 1337093539.666744	 0.014243	 10952.855610	 3	 10
  22	 1	 93184	 (nil)  1337093539.666751	 1337093539.683622	 0.016871	 10787.745477	 3	 10
  23	 1	 3072	 (nil)  1337093539.683630	 1337093539.684084	 0.000454	 13218.858023	 3	 10
  24	 1	 37888	 (nil)  1337093539.684091	 1337093539.691179	 0.007088	 10440.086320	 3	 10
  25	 1	 59392	 (nil)  1337093539.691187	 1337093539.702620	 0.011433	 10146.504149	 3	 10
  26	 1	 71680	 (nil)  1337093539.702627	 1337093539.715980	 0.013353	 10484.560436	 3	 10
  27	 1	 75776	 (nil)  1337093539.715988	 1337093539.730145	 0.014158	 10453.732240	 3	 10
  28	 1	 4096	 (nil)  1337093539.730155	 1337093539.730767	 0.000612	 13065.234717	 3	 10
  29	 1	 78848	 (nil)  1337093539.730773	 1337093539.745942	 0.015169	 10152.084154	 3	 10
  30	 1	 44032	 (nil)  1337093539.745949	 1337093539.754267	 0.008317	 10339.854174	 3	 10
  31	 1	 2048	 (nil)  1337093539.754274	 1337093539.754567	 0.000292	 13678.019423	 3	 10
  32	 1	 95232	 (nil)  1337093539.754574	 1337093539.773446	 0.018873	 9855.450740	 3	 10
  33	 1	 99328	 (nil)  1337093539.773457	 1337093539.793027	 0.019570	 9913.289884	 3	 10
  34	 1	 90112	 (nil)  1337093539.793036	 1337093539.811049	 0.018013	 9770.519910	 3	 10
  35	 1	 92160	 (nil)  1337093539.811058	 1337093539.828845	 0.017787	 10119.977961	 3	 10
  36	 1	 89088	 (nil)  1337093539.828852	 1337093539.846058	 0.017206	 10112.591502	 3	 10
  37	 1	 54272	 (nil)  1337093539.846065	 1337093539.856919	 0.010854	 9765.931805	 3	 10
  38	 1	 38912	 (nil)  1337093539.856929	 1337093539.864520	 0.007591	 10011.803389	 3	 10
  39	 1	 87040	 (nil)  1337093539.864528	 1337093539.882075	 0.017546	 9688.545740	 3	 10
  40	 1	 67584	 (nil)  1337093539.882082	 1337093539.895753	 0.013671	 9655.785864	 3	 10
  41	 1	 49152	 (nil)  1337093539.895764	 1337093539.905738	 0.009973	 9625.880141	 3	 10
  42	 1	 57344	 (nil)  1337093539.905745	 1337093539.917458	 0.011712	 9562.550049	 3	 10
  43	 1	 29696	 (nil)  1337093539.917465	 1337093539.922878	 0.005413	 10714.919768	 3	 10
  44	 1	 53248	 (nil)  1337093539.922928	 1337093539.933960	 0.011032	 9427.353539	 3	 10
  45	 1	 46080	 (nil)  1337093539.933970	 1337093539.943007	 0.009037	 9959.498041	 3	 10
  46	 1	 100352	 (nil)  1337093539.943015	 1337093539.964345	 0.021331	 9188.693238	 3	 10
  47	 1	 8192	 (nil)  1337093539.964355	 1337093539.966034	 0.001679	 9528.329809	 3	 10
  48	 1	 35840	 (nil)  1337093539.966040	 1337093539.972970	 0.006930	 10101.170437	 3	 10
  49	 1	 68608	 (nil)  1337093539.972977	 1337093539.988092	 0.015115	 8865.088699	 3	 10
  50	 1	 1024	 (nil)  1337093539.988102	 1337093539.988255	 0.000153	 13108.135564	 3	 10
  51	 1	 19456	 (nil)  1337093539.988261	 1337093539.992531	 0.004270	 8899.962316	 3	 10
  52	 1	 5120	 (nil)  1337093539.992538	 1337093539.993460	 0.000922	 10843.387865	 3	 10
  53	 1	 65536	 (nil)  1337093539.993466	 1337093540.008459	 0.014993	 8537.474578	 3	 10
  54	 1	 25600	 (nil)  1337093540.008467	 1337093540.014051	 0.005585	 8953.269662	 3	 10
  55	 1	 26624	 (nil)  1337093540.014058	 1337093540.019794	 0.005735	 9066.538805	 3	 10
  56	 1	 17408	 (nil)  1337093540.019801	 1337093540.023606	 0.003805	 8935.862323	 3	 10
  57	 1	 81920	 (nil)  1337093540.023617	 1337093540.042359	 0.018742	 8536.924761	 3	 10
  58	 1	 86016	 (nil)  1337093540.042367	 1337093540.062095	 0.019729	 8515.430492	 3	 10
  59	 1	 91136	 (nil)  1337093540.062106	 1337093540.083228	 0.021122	 8427.402238	 3	 10
  60	 1	 21504	 (nil)  1337093540.083237	 1337093540.088045	 0.004808	 8735.026708	 3	 10
  61	 1	 27648	 (nil)  1337093540.088052	 1337093540.094486	 0.006434	 8393.018314	 3	 10
  62	 1	 58368	 (nil)  1337093540.094493	 1337093540.108890	 0.014397	 7918.221717	 3	 10
  63	 1	 72704	 (nil)  1337093540.108901	 1337093540.126085	 0.017184	 8263.420143	 3	 10
  64	 1	 82944	 (nil)  1337093540.126101	 1337093540.145593	 0.019491	 8311.379150	 3	 10
  65	 1	 51200	 (nil)  1337093540.145600	 1337093540.157614	 0.012014	 8323.615512	 3	 10
  66	 1	 56320	 (nil)  1337093540.157622	 1337093540.170936	 0.013314	 8262.051234	 3	 10
  67	 1	 41984	 (nil)  1337093540.170943	 1337093540.180368	 0.009426	 8699.624664	 3	 10
  68	 1	 9216	 (nil)  1337093540.180376	 1337093540.182645	 0.002269	 7932.702478	 3	 10
  69	 1	 96256	 (nil)  1337093540.182651	 1337093540.207116	 0.024465	 7684.416388	 3	 10
  70	 1	 70656	 (nil)  1337093540.207128	 1337093540.224484	 0.017356	 7951.034533	 3	 10
  71	 1	 88064	 (nil)  1337093540.224491	 1337093540.246963	 0.022471	 7654.198956	 3	 10
  72	 1	 11264	 (nil)  1337093540.246974	 1337093540.249856	 0.002882	 7633.754659	 3	 10
  73	 1	 77824	 (nil)  1337093540.249863	 1337093540.269350	 0.019487	 7800.086253	 3	 10
  74	 1	 45056	 (nil)  1337093540.269361	 1337093540.280063	 0.010702	 8222.812043	 3	 10
  75	 1	 14336	 (nil)  1337093540.280072	 1337093540.283571	 0.003498	 8003.965393	 3	 10
  76	 1	 80896	 (nil)  1337093540.283577	 1337093540.304436	 0.020859	 7574.536556	 3	 10
  77	 1	 39936	 (nil)  1337093540.304446	 1337093540.314234	 0.009788	 7969.250137	 3	 10
  78	 1	 34816	 (nil)  1337093540.314241	 1337093540.322594	 0.008353	 8140.898846	 3	 10
  79	 1	 24576	 (nil)  1337093540.322602	 1337093540.328473	 0.005871	 8176.053599	 3	 10
  80	 1	 69632	 (nil)  1337093540.328480	 1337093540.346778	 0.018298	 7432.340968	 3	 10
  81	 1	 63488	 (nil)  1337093540.346787	 1337093540.363621	 0.016833	 7366.362598	 3	 10
  82	 1	 20480	 (nil)  1337093540.363641	 1337093540.368647	 0.005006	 7990.205606	 3	 10
  83	 1	 55296	 (nil)  1337093540.368653	 1337093540.383273	 0.014620	 7387.313206	 3	 10
  84	 1	 94208	 (nil)  1337093540.383284	 1337093540.410872	 0.027588	 6669.493227	 3	 10
  85	 1	 60416	 (nil)  1337093540.410892	 1337093540.427490	 0.016598	 7109.323685	 3	 10
  86	 1	 102400	 (nil)  1337093540.427513	 1337093540.443295	 0.015782	 12673.058535	 3	 10
  87	 1	 12288	 (nil)  1337093540.443314	 1337093540.446398	 0.003083	 7784.438518	 3	 10
  88	 1	 40960	 (nil)  1337093540.446404	 1337093540.457062	 0.010658	 7506.266325	 3	 10
  89	 1	 66560	 (nil)  1337093540.457073	 1337093540.475155	 0.018082	 7189.571184	 3	 10
  90	 1	 74752	 (nil)  1337093540.475219	 1337093540.496350	 0.021131	 6909.359006	 3	 10
  91	 1	 16384	 (nil)  1337093540.496362	 1337093540.500754	 0.004391	 7287.202306	 3	 10
  92	 1	 98304	 (nil)  1337093540.500760	 1337093540.530389	 0.029628	 6480.284023	 3	 10
  93	 1	 30720	 (nil)  1337093540.530398	 1337093540.538334	 0.007936	 7560.243803	 3	 10
  94	 1	 22528	 (nil)  1337093540.538341	 1337093540.544157	 0.005816	 7565.205625	 3	 10
  95	 1	 62464	 (nil)  1337093540.544164	 1337093540.561882	 0.017717	 6885.944489	 3	 10
  96	 1	 33792	 (nil)  1337093540.561893	 1337093540.571044	 0.009151	 7212.484154	 3	 10
  97	 1	 36864	 (nil)  1337093540.571051	 1337093540.580921	 0.009870	 7295.176520	 3	 10
  98	 1	 61440	 (nil)  1337093540.580929	 1337093540.598753	 0.017825	 6732.218276	 3	 10
  99	 1	 28672	 (nil)  1337093540.598761	 1337093540.606850	 0.008089	 6923.323329	 3	 10
  100	 2	 7168	 (nil)  1337093540.606858	 1337093540.609413	 0.002554	 5481.382875	 3	 10
  101	 2	 84992	 (nil)  1337093540.609421	 1337093540.647751	 0.038331	 4330.747425	 3	 10
  102	 2	 83968	 (nil)  1337093540.647759	 1337093540.685056	 0.037297	 4397.108558	 3	 10
  103	 2	 43008	 (nil)  1337093540.685065	 1337093540.702039	 0.016974	 4948.674003	 3	 10
  104	 2	 52224	 (nil)  1337093540.702046	 1337093540.724319	 0.022272	 4579.677430	 3	 10
  105	 2	 73728	 (nil)  1337093540.724325	 1337093540.756610	 0.032285	 4460.236020	 3	 10
  106	 2	 97280	 (nil)  1337093540.756620	 1337093540.802619	 0.045999	 4130.555646	 3	 10
  107	 2	 32768	 (nil)  1337093540.802629	 1337093540.815334	 0.012705	 5037.487566	 3	 10
  108	 2	 48128	 (nil)  1337093540.815341	 1337093540.834451	 0.019109	 4919.038385	 3	 10
  109	 2	 23552	 (nil)  1337093540.834458	 1337093540.842985	 0.008527	 5394.700317	 3	 10
  110	 2	 76800	 (nil)  1337093540.842990	 1337093540.876767	 0.033777	 4440.893309	 3	 10
  111	 2	 10240	 (nil)  1337093540.876776	 1337093540.880233	 0.003456	 5786.286963	 3	 10
  112	 2	 18432	 (nil)  1337093540.880238	 1337093540.886802	 0.006564	 5484.345393	 3	 10
  113	 2	 13312	 (nil)  1337093540.886807	 1337093540.891460	 0.004652	 5588.443786	 3	 10
  114	 2	 31744	 (nil)  1337093540.891467	 1337093540.903636	 0.012169	 5094.811986	 3	 10
  115	 2	 64512	 (nil)  1337093540.903646	 1337093540.931720	 0.028074	 4488.086694	 3	 10
  116	 2	 15360	 (nil)  1337093540.931727	 1337093540.937327	 0.005600	 5356.886492	 3	 10
  117	 2	 50176	 (nil)  1337093540.937333	 1337093540.957842	 0.020509	 4778.403256	 3	 10
  118	 2	 101376	 (nil)  1337093540.957857	 1337093541.006562	 0.048704	 4065.352554	 3	 10
  119	 2	 47104	 (nil)  1337093541.006571	 1337093541.025534	 0.018964	 4851.404640	 3	 10
  120	 2	 6144	 (nil)  1337093541.025542	 1337093541.027483	 0.001942	 6179.222160	 3	 10
  121	 2	 79872	 (nil)  1337093541.027488	 1337093541.062434	 0.034946	 4464.011312	 3	 10
  122	 2	 93184	 (nil)  1337093541.062445	 1337093541.106190	 0.043746	 4160.425077	 3	 10
  123	 2	 3072	 (nil)  1337093541.106202	 1337093541.106679	 0.000477	 12570.104520	 3	 10
  124	 2	 37888	 (nil)  1337093541.106684	 1337093541.121453	 0.014769	 5010.581807	 3	 10
  125	 2	 59392	 (nil)  1337093541.121459	 1337093541.146688	 0.025229	 4597.872453	 3	 10
  126	 2	 71680	 (nil)  1337093541.146695	 1337093541.177489	 0.030794	 4546.284095	 3	 10
  127	 2	 75776	 (nil)  1337093541.177500	 1337093541.210871	 0.033371	 4434.979825	 3	 10
  128	 2	 4096	 (nil)  1337093541.210882	 1337093541.211495	 0.000613	 13040.593738	 3	 10
  129	 2	 78848	 (nil)  1337093541.211500	 1337093541.246307	 0.034807	 4424.388748	 3	 10
  130	 2	 44032	 (nil)  1337093541.246316	 1337093541.263430	 0.017113	 5025.367588	 3	 10
  131	 2	 2048	 (nil)  1337093541.263437	 1337093541.263747	 0.000311	 12878.341527	 3	 10
  132	 2	 95232	 (nil)  1337093541.263752	 1337093541.308489	 0.044737	 4157.632199	 3	 10
  133	 2	 99328	 (nil)  1337093541.308497	 1337093541.356007	 0.047509	 4083.425735	 3	 10
  134	 2	 90112	 (nil)  1337093541.356018	 1337093541.397517	 0.041499	 4241.064312	 3	 10
  135	 2	 92160	 (nil)  1337093541.397605	 1337093541.441232	 0.043627	 4125.892534	 3	 10
  136	 2	 89088	 (nil)  1337093541.441245	 1337093541.481991	 0.040746	 4270.385181	 3	 10
  137	 2	 54272	 (nil)  1337093541.482002	 1337093541.504980	 0.022978	 4613.047963	 3	 10
  138	 2	 38912	 (nil)  1337093541.504988	 1337093541.520383	 0.015396	 4936.405778	 3	 10
  139	 2	 87040	 (nil)  1337093541.520390	 1337093541.559491	 0.039101	 4347.736797	 3	 10
  140	 2	 67584	 (nil)  1337093541.559502	 1337093541.588532	 0.029030	 4546.968166	 3	 10
  141	 2	 49152	 (nil)  1337093541.588538	 1337093541.608483	 0.019944	 4813.385785	 3	 10
  142	 2	 57344	 (nil)  1337093541.608493	 1337093541.632820	 0.024327	 4603.850957	 3	 10
  143	 2	 29696	 (nil)  1337093541.632826	 1337093541.643752	 0.010926	 5308.435672	 3	 10
  144	 2	 53248	 (nil)  1337093541.643759	 1337093541.666111	 0.022352	 4652.757754	 3	 10
  145	 2	 46080	 (nil)  1337093541.666119	 1337093541.684289	 0.018169	 4953.367894	 3	 10
  146	 2	 100352	 (nil)  1337093541.684295	 1337093541.732147	 0.047852	 4095.945004	 3	 10
  147	 2	 8192	 (nil)  1337093541.732159	 1337093541.734947	 0.002788	 5737.911565	 3	 10
  148	 2	 35840	 (nil)  1337093541.734952	 1337093541.748354	 0.013402	 5223.287715	 3	 10
  149	 2	 68608	 (nil)  1337093541.748359	 1337093541.777842	 0.029483	 4544.964435	 3	 10
  150	 2	 1024	 (nil)  1337093541.777855	 1337093541.778008	 0.000152	 13116.044201	 3	 10
  151	 2	 19456	 (nil)  1337093541.778013	 1337093541.785079	 0.007066	 5378.072100	 3	 10
  152	 2	 5120	 (nil)  1337093541.785085	 1337093541.786316	 0.001231	 8122.064889	 3	 10
  153	 2	 65536	 (nil)  1337093541.786320	 1337093541.814924	 0.028604	 4474.908472	 3	 10
  154	 2	 25600	 (nil)  1337093541.814933	 1337093541.824423	 0.009490	 5268.871570	 3	 10
  155	 2	 26624	 (nil)  1337093541.824429	 1337093541.834074	 0.009645	 5391.463261	 3	 10
  156	 2	 17408	 (nil)  1337093541.834079	 1337093541.840223	 0.006145	 5533.380443	 3	 10
  157	 2	 81920	 (nil)  1337093541.840230	 1337093541.876281	 0.036052	 4438.040968	 3	 10
  158	 2	 86016	 (nil)  1337093541.876292	 1337093541.915363	 0.039070	 4299.954595	 3	 10
  159	 2	 91136	 (nil)  1337093541.915375	 1337093541.957588	 0.042213	 4216.698305	 3	 10
  160	 2	 21504	 (nil)  1337093541.957598	 1337093541.965278	 0.007680	 5468.975026	 3	 10
  161	 2	 27648	 (nil)  1337093541.965283	 1337093541.975428	 0.010145	 5322.843258	 3	 10
  162	 2	 58368	 (nil)  1337093541.975434	 1337093541.999829	 0.024394	 4673.200429	 3	 10
  163	 2	 72704	 (nil)  1337093541.999835	 1337093542.031748	 0.031912	 4449.694248	 3	 10
  164	 2	 82944	 (nil)  1337093542.031755	 1337093542.068598	 0.036843	 4397.012680	 3	 10
  165	 2	 51200	 (nil)  1337093542.068609	 1337093542.090014	 0.021405	 4671.875060	 3	 10
  166	 2	 56320	 (nil)  1337093542.090020	 1337093542.114065	 0.024045	 4574.716854	 3	 10
  167	 2	 41984	 (nil)  1337093542.114075	 1337093542.130493	 0.016418	 4994.506956	 3	 10
  168	 2	 9216	 (nil)  1337093542.130499	 1337093542.133626	 0.003127	 5755.498740	 3	 10
  169	 2	 96256	 (nil)  1337093542.133633	 1337093542.178368	 0.044735	 4202.537447	 3	 10
  170	 2	 70656	 (nil)  1337093542.178376	 1337093542.208819	 0.030443	 4533.073998	 3	 10
  171	 2	 88064	 (nil)  1337093542.208829	 1337093542.249088	 0.040259	 4272.383739	 3	 10
  172	 2	 11264	 (nil)  1337093542.249097	 1337093542.253071	 0.003974	 5536.184502	 3	 10
  173	 2	 77824	 (nil)  1337093542.253077	 1337093542.286522	 0.033445	 4544.767530	 3	 10
  174	 2	 45056	 (nil)  1337093542.286531	 1337093542.304106	 0.017574	 5007.259103	 3	 10
  175	 2	 14336	 (nil)  1337093542.304112	 1337093542.309350	 0.005238	 5345.197636	 3	 10
  176	 2	 80896	 (nil)  1337093542.309355	 1337093542.345321	 0.035966	 4393.083185	 3	 10
  177	 2	 39936	 (nil)  1337093542.345330	 1337093542.360796	 0.015466	 5043.273550	 3	 10
  178	 2	 34816	 (nil)  1337093542.360806	 1337093542.373791	 0.012985	 5236.918985	 3	 10
  179	 2	 24576	 (nil)  1337093542.373796	 1337093542.382733	 0.008937	 5371.089106	 3	 10
  180	 2	 69632	 (nil)  1337093542.382776	 1337093542.413017	 0.030242	 4497.124436	 3	 10
  181	 2	 63488	 (nil)  1337093542.413028	 1337093542.440432	 0.027404	 4524.858313	 3	 10
  182	 2	 20480	 (nil)  1337093542.440439	 1337093542.447727	 0.007288	 5488.754366	 3	 10
  183	 2	 55296	 (nil)  1337093542.447732	 1337093542.470724	 0.022992	 4697.377337	 3	 10
  184	 2	 94208	 (nil)  1337093542.470731	 1337093542.514843	 0.044111	 4171.258451	 3	 10
  185	 2	 60416	 (nil)  1337093542.514853	 1337093542.540527	 0.025674	 4596.056669	 3	 10
  186	 2	 102400	 (nil)  1337093542.540536	 1337093542.588837	 0.048300	 4140.750743	 3	 10
  187	 2	 12288	 (nil)  1337093542.588847	 1337093542.593178	 0.004331	 5542.034019	 3	 10
  188	 2	 40960	 (nil)  1337093542.593184	 1337093542.609187	 0.016004	 4998.835584	 3	 10
  189	 2	 66560	 (nil)  1337093542.609195	 1337093542.638075	 0.028880	 4501.372105	 3	 10
  190	 2	 74752	 (nil)  1337093542.638081	 1337093542.670114	 0.032032	 4557.876462	 3	 10
  191	 2	 16384	 (nil)  1337093542.670130	 1337093542.675950	 0.005820	 5498.461290	 3	 10
  192	 2	 98304	 (nil)  1337093542.675957	 1337093542.722369	 0.046411	 4136.947974	 3	 10
  193	 2	 30720	 (nil)  1337093542.722381	 1337093542.733848	 0.011467	 5232.406491	 3	 10
  194	 2	 22528	 (nil)  1337093542.733858	 1337093542.741843	 0.007985	 5510.609991	 3	 10
  195	 2	 62464	 (nil)  1337093542.741849	 1337093542.768391	 0.026542	 4596.486160	 3	 10
  196	 2	 33792	 (nil)  1337093542.768397	 1337093542.780875	 0.012478	 5289.231189	 3	 10
  197	 2	 36864	 (nil)  1337093542.780881	 1337093542.794837	 0.013956	 5159.115728	 3	 10
  198	 2	 61440	 (nil)  1337093542.794843	 1337093542.821193	 0.026349	 4554.180113	 3	 10
  199	 2	 28672	 (nil)  1337093542.821200	 1337093542.831938	 0.010738	 5215.332706	 3	 10
  200	 4	 7168	 (nil)  1337093542.831943	 1337093542.834415	 0.002472	 5663.654951	 3	 10
  201	 4	 84992	 (nil)  1337093542.834420	 1337093542.875133	 0.040713	 4077.337664	 3	 10
  202	 4	 83968	 (nil)  1337093542.875145	 1337093542.915366	 0.040220	 4077.530463	 3	 10
  203	 4	 43008	 (nil)  1337093542.915374	 1337093542.933453	 0.018079	 4646.246928	 3	 10
  204	 4	 52224	 (nil)  1337093542.933461	 1337093542.957167	 0.023706	 4302.742479	 3	 10
  205	 4	 73728	 (nil)  1337093542.957175	 1337093542.991175	 0.034000	 4235.303087	 3	 10
  206	 4	 97280	 (nil)  1337093542.991184	 1337093543.041075	 0.049891	 3808.307289	 3	 10
  207	 4	 32768	 (nil)  1337093543.041084	 1337093543.053786	 0.012702	 5038.544075	 3	 10
  208	 4	 48128	 (nil)  1337093543.053792	 1337093543.073956	 0.020164	 4661.674278	 3	 10
  209	 4	 23552	 (nil)  1337093543.073964	 1337093543.082748	 0.008784	 5236.518157	 3	 10
  210	 4	 76800	 (nil)  1337093543.082754	 1337093543.118748	 0.035994	 4167.353585	 3	 10
  211	 4	 10240	 (nil)  1337093543.118758	 1337093543.122475	 0.003716	 5382.174775	 3	 10
  212	 4	 18432	 (nil)  1337093543.122482	 1337093543.129477	 0.006995	 5146.840062	 3	 10
  213	 4	 13312	 (nil)  1337093543.129482	 1337093543.134236	 0.004754	 5468.846296	 3	 10
  214	 4	 31744	 (nil)  1337093543.134241	 1337093543.146371	 0.012130	 5111.189391	 3	 10
  215	 4	 64512	 (nil)  1337093543.146377	 1337093543.176113	 0.029736	 4237.271036	 3	 10
  216	 4	 15360	 (nil)  1337093543.176122	 1337093543.181700	 0.005578	 5378.293959	 3	 10
  217	 4	 50176	 (nil)  1337093543.181705	 1337093543.203852	 0.022147	 4424.957573	 3	 10
  218	 4	 101376	 (nil)  1337093543.203859	 1337093543.256259	 0.052400	 3778.640737	 3	 10
  219	 4	 47104	 (nil)  1337093543.256270	 1337093543.275977	 0.019708	 4668.260709	 3	 10
  220	 4	 6144	 (nil)  1337093543.275984	 1337093543.277833	 0.001848	 6491.764115	 3	 10
  221	 4	 79872	 (nil)  1337093543.277838	 1337093543.315575	 0.037738	 4133.776753	 3	 10
  222	 4	 93184	 (nil)  1337093543.315586	 1337093543.363006	 0.047420	 3838.037759	 3	 10
  223	 4	 3072	 (nil)  1337093543.363017	 1337093543.363487	 0.000470	 12756.539321	 3	 10
  224	 4	 37888	 (nil)  1337093543.363492	 1337093543.378723	 0.015231	 4858.476518	 3	 10
  225	 4	 59392	 (nil)  1337093543.378758	 1337093543.406365	 0.027606	 4201.912015	 3	 10
  226	 4	 71680	 (nil)  1337093543.406380	 1337093543.440285	 0.033905	 4129.192768	 3	 10
  227	 4	 75776	 (nil)  1337093543.440295	 1337093543.475308	 0.035013	 4226.961560	 3	 10
  228	 4	 4096	 (nil)  1337093543.475319	 1337093543.475954	 0.000634	 12619.072782	 3	 10
  229	 4	 78848	 (nil)  1337093543.475958	 1337093543.512523	 0.036565	 4211.731280	 3	 10
  230	 4	 44032	 (nil)  1337093543.512532	 1337093543.531227	 0.018694	 4600.357084	 3	 10
  231	 4	 2048	 (nil)  1337093543.531234	 1337093543.531538	 0.000304	 13165.040236	 3	 10
  232	 4	 95232	 (nil)  1337093543.531543	 1337093543.579091	 0.047548	 3911.797299	 3	 10
  233	 4	 99328	 (nil)  1337093543.579101	 1337093543.629674	 0.050573	 3836.066452	 3	 10
  234	 4	 90112	 (nil)  1337093543.629683	 1337093543.674226	 0.044543	 3951.216485	 3	 10
  235	 4	 92160	 (nil)  1337093543.674237	 1337093543.720531	 0.046294	 3888.206293	 3	 10
  236	 4	 89088	 (nil)  1337093543.720541	 1337093543.764950	 0.044410	 3918.070710	 3	 10
  237	 4	 54272	 (nil)  1337093543.764962	 1337093543.789661	 0.024699	 4291.717079	 3	 10
  238	 4	 38912	 (nil)  1337093543.789667	 1337093543.805441	 0.015774	 4818.121920	 3	 10
  239	 4	 87040	 (nil)  1337093543.805446	 1337093543.847910	 0.042463	 4003.464363	 3	 10
  240	 4	 67584	 (nil)  1337093543.847920	 1337093543.879065	 0.031145	 4238.179933	 3	 10
  241	 4	 49152	 (nil)  1337093543.879075	 1337093543.900058	 0.020983	 4575.067275	 3	 10
  242	 4	 57344	 (nil)  1337093543.900067	 1337093543.926474	 0.026407	 4241.239748	 3	 10
  243	 4	 29696	 (nil)  1337093543.926482	 1337093543.938056	 0.011574	 5011.321699	 3	 10
  244	 4	 53248	 (nil)  1337093543.938063	 1337093543.962135	 0.024071	 4320.485290	 3	 10
  245	 4	 46080	 (nil)  1337093543.962143	 1337093543.981367	 0.019224	 4681.658412	 3	 10
  246	 4	 100352	 (nil)  1337093543.981374	 1337093544.033050	 0.051676	 3792.864913	 3	 10
  247	 4	 8192	 (nil)  1337093544.033060	 1337093544.036003	 0.002943	 5436.682862	 3	 10
  248	 4	 35840	 (nil)  1337093544.036010	 1337093544.050144	 0.014134	 4952.481646	 3	 10
  249	 4	 68608	 (nil)  1337093544.050150	 1337093544.081671	 0.031522	 4251.062417	 3	 10
  250	 4	 1024	 (nil)  1337093544.081684	 1337093544.081828	 0.000144	 13881.080781	 3	 10
  251	 4	 19456	 (nil)  1337093544.081832	 1337093544.088971	 0.007139	 5323.113702	 3	 10
  252	 4	 5120	 (nil)  1337093544.088976	 1337093544.090114	 0.001138	 8787.369387	 3	 10
  253	 4	 65536	 (nil)  1337093544.090119	 1337093544.120715	 0.030596	 4183.564755	 3	 10
  254	 4	 25600	 (nil)  1337093544.120724	 1337093544.130560	 0.009836	 5083.533125	 3	 10
  255	 4	 26624	 (nil)  1337093544.130567	 1337093544.140726	 0.010159	 5118.586325	 3	 10
  256	 4	 17408	 (nil)  1337093544.140732	 1337093544.147112	 0.006380	 5329.227947	 3	 10
  257	 4	 81920	 (nil)  1337093544.147118	 1337093544.185882	 0.038763	 4127.608313	 3	 10
  258	 4	 86016	 (nil)  1337093544.185891	 1337093544.227615	 0.041724	 4026.458048	 3	 10
  259	 4	 91136	 (nil)  1337093544.227629	 1337093544.273102	 0.045473	 3914.451639	 3	 10
  260	 4	 21504	 (nil)  1337093544.273114	 1337093544.281023	 0.007909	 5310.699973	 3	 10
  261	 4	 27648	 (nil)  1337093544.281028	 1337093544.291554	 0.010526	 5130.321081	 3	 10
  262	 4	 58368	 (nil)  1337093544.291560	 1337093544.318216	 0.026656	 4276.740366	 3	 10
  263	 4	 72704	 (nil)  1337093544.318222	 1337093544.352664	 0.034442	 4122.894544	 3	 10
  264	 4	 82944	 (nil)  1337093544.352675	 1337093544.392002	 0.039326	 4119.373756	 3	 10
  265	 4	 51200	 (nil)  1337093544.392013	 1337093544.415168	 0.023156	 4318.624674	 3	 10
  266	 4	 56320	 (nil)  1337093544.415176	 1337093544.441217	 0.026041	 4224.087374	 3	 10
  267	 4	 41984	 (nil)  1337093544.441225	 1337093544.458398	 0.017172	 4775.185434	 3	 10
  268	 4	 9216	 (nil)  1337093544.458404	 1337093544.461638	 0.003234	 5565.745680	 3	 10
  269	 4	 96256	 (nil)  1337093544.461643	 1337093544.509889	 0.048246	 3896.676311	 3	 10
  270	 4	 70656	 (nil)  1337093544.509938	 1337093544.543355	 0.033417	 4129.628438	 3	 10
  271	 4	 88064	 (nil)  1337093544.543365	 1337093544.586303	 0.042939	 4005.707108	 3	 10
  272	 4	 11264	 (nil)  1337093544.586323	 1337093544.590358	 0.004035	 5451.762803	 3	 10
  273	 4	 77824	 (nil)  1337093544.590363	 1337093544.626970	 0.036606	 4152.297078	 3	 10
  274	 4	 45056	 (nil)  1337093544.626980	 1337093544.645987	 0.019007	 4629.805732	 3	 10
  275	 4	 14336	 (nil)  1337093544.645998	 1337093544.651348	 0.005350	 5233.266304	 3	 10
  276	 4	 80896	 (nil)  1337093544.651365	 1337093544.689741	 0.038377	 4117.077167	 3	 10
  277	 4	 39936	 (nil)  1337093544.689761	 1337093544.706057	 0.016295	 4786.707093	 3	 10
  278	 4	 34816	 (nil)  1337093544.706063	 1337093544.719797	 0.013734	 4951.166571	 3	 10
  279	 4	 24576	 (nil)  1337093544.719803	 1337093544.729240	 0.009437	 5086.558388	 3	 10
  280	 4	 69632	 (nil)  1337093544.729246	 1337093544.761373	 0.032127	 4233.243368	 3	 10
  281	 4	 63488	 (nil)  1337093544.761384	 1337093544.790561	 0.029177	 4249.946045	 3	 10
  282	 4	 20480	 (nil)  1337093544.790570	 1337093544.798097	 0.007527	 5314.015117	 3	 10
  283	 4	 55296	 (nil)  1337093544.798102	 1337093544.823256	 0.025153	 4293.683840	 3	 10
  284	 4	 94208	 (nil)  1337093544.823263	 1337093544.870877	 0.047613	 3864.457026	 3	 10
  285	 4	 60416	 (nil)  1337093544.870888	 1337093544.898393	 0.027505	 4290.116121	 3	 10
  286	 4	 102400	 (nil)  1337093544.898400	 1337093544.951407	 0.053007	 3773.105935	 3	 10
  287	 4	 12288	 (nil)  1337093544.951418	 1337093544.955850	 0.004432	 5414.712858	 3	 10
  288	 4	 40960	 (nil)  1337093544.955856	 1337093544.972617	 0.016761	 4772.871855	 3	 10
  289	 4	 66560	 (nil)  1337093544.972625	 1337093545.003436	 0.030811	 4219.295070	 3	 10
  290	 4	 74752	 (nil)  1337093545.003446	 1337093545.038468	 0.035022	 4168.749495	 3	 10
  291	 4	 16384	 (nil)  1337093545.038476	 1337093545.044512	 0.006035	 5302.071436	 3	 10
  292	 4	 98304	 (nil)  1337093545.044518	 1337093545.094017	 0.049499	 3878.831290	 3	 10
  293	 4	 30720	 (nil)  1337093545.094027	 1337093545.105857	 0.011830	 5072.047162	 3	 10
  294	 4	 22528	 (nil)  1337093545.105863	 1337093545.114215	 0.008352	 5268.217526	 3	 10
  295	 4	 62464	 (nil)  1337093545.114220	 1337093545.143628	 0.029408	 4148.558379	 3	 10
  296	 4	 33792	 (nil)  1337093545.143637	 1337093545.156771	 0.013134	 5025.247299	 3	 10
  297	 4	 36864	 (nil)  1337093545.156780	 1337093545.171260	 0.014479	 4972.600625	 3	 10
  298	 4	 61440	 (nil)  1337093545.171265	 1337093545.199405	 0.028140	 4264.340346	 3	 10
  299	 4	 28672	 (nil)  1337093545.199414	 1337093545.210303	 0.010888	 5143.041295	 3	 10
  300	 1	 74752	 (nil)  1337093545.210308	 1337093545.232670	 0.022362	 6528.900019	 3	 10
  301	 1	 79872	 (nil)  1337093545.232679	 1337093545.256679	 0.023999	 6500.234008	 3	 10
  302	 1	 76800	 (nil)  1337093545.256685	 1337093545.279399	 0.022713	 6604.091287	 3	 10
  303	 1	 97280	 (nil)  1337093545.279407	 1337093545.310041	 0.030635	 6202.107692	 3	 10
  304	 1	 52224	 (nil)  1337093545.310048	 1337093545.325118	 0.015070	 6768.241156	 3	 10
  305	 1	 80896	 (nil)  1337093545.325125	 1337093545.350036	 0.024912	 6342.421984	 3	 10
  306	 1	 82944	 (nil)  1337093545.350043	 1337093545.374982	 0.024939	 6495.947551	 3	 10
  307	 1	 50176	 (nil)  1337093545.374990	 1337093545.389217	 0.014227	 6888.260605	 3	 10
  308	 1	 20480	 (nil)  1337093545.389225	 1337093545.394526	 0.005301	 7545.068581	 3	 10
  309	 1	 14336	 (nil)  1337093545.394532	 1337093545.398467	 0.003935	 7115.583764	 3	 10
  310	 1	 59392	 (nil)  1337093545.398474	 1337093545.415948	 0.017474	 6638.451341	 3	 10
  311	 1	 64512	 (nil)  1337093545.415954	 1337093545.435214	 0.019259	 6542.231350	 3	 10
  312	 1	 2048	 (nil)  1337093545.435220	 1337093545.435519	 0.000299	 13393.066410	 3	 10
  313	 1	 67584	 (nil)  1337093545.435523	 1337093545.455820	 0.020297	 6503.406849	 3	 10
  314	 1	 62464	 (nil)  1337093545.455828	 1337093545.474146	 0.018318	 6660.264078	 3	 10
  315	 1	 61440	 (nil)  1337093545.474197	 1337093545.492459	 0.018262	 6571.084763	 3	 10
  316	 1	 23552	 (nil)  1337093545.492467	 1337093545.498626	 0.006159	 7469.094187	 3	 10
  317	 1	 40960	 (nil)  1337093545.498632	 1337093545.510121	 0.011489	 6963.140961	 3	 10
  318	 1	 10240	 (nil)  1337093545.510127	 1337093545.512671	 0.002544	 7861.252046	 3	 10
  319	 1	 72704	 (nil)  1337093545.512676	 1337093545.534424	 0.021748	 6529.430604	 3	 10
  320	 1	 5120	 (nil)  1337093545.534431	 1337093545.535335	 0.000903	 11071.941044	 3	 10
  321	 1	 73728	 (nil)  1337093545.535340	 1337093545.557145	 0.021805	 6603.888755	 3	 10
  322	 1	 27648	 (nil)  1337093545.557152	 1337093545.564770	 0.007618	 7088.163895	 3	 10
  323	 1	 56320	 (nil)  1337093545.564777	 1337093545.580923	 0.016145	 6813.123215	 3	 10
  324	 1	 71680	 (nil)  1337093545.580929	 1337093545.601988	 0.021059	 6647.852295	 3	 10
  325	 1	 8192	 (nil)  1337093545.601995	 1337093545.604197	 0.002202	 7266.629910	 3	 10
  326	 1	 48128	 (nil)  1337093545.604202	 1337093545.617815	 0.013612	 6905.575584	 3	 10
  327	 1	 36864	 (nil)  1337093545.617820	 1337093545.627968	 0.010147	 7095.496114	 3	 10
  328	 1	 83968	 (nil)  1337093545.627973	 1337093545.653839	 0.025865	 6340.501722	 3	 10
  329	 1	 19456	 (nil)  1337093545.653847	 1337093545.658865	 0.005018	 7571.997240	 3	 10
  330	 1	 3072	 (nil)  1337093545.658878	 1337093545.659324	 0.000446	 13452.492523	 3	 10
  331	 1	 44032	 (nil)  1337093545.659328	 1337093545.671530	 0.012202	 7048.031268	 3	 10
  332	 1	 102400	 (nil)  1337093545.671537	 1337093545.704017	 0.032480	 6157.592244	 3	 10
  333	 1	 77824	 (nil)  1337093545.704027	 1337093545.727201	 0.023174	 6559.019068	 3	 10
  334	 1	 21504	 (nil)  1337093545.727210	 1337093545.733188	 0.005977	 7026.407582	 3	 10
  335	 1	 15360	 (nil)  1337093545.733193	 1337093545.737230	 0.004037	 7431.179843	 3	 10
  336	 1	 90112	 (nil)  1337093545.737236	 1337093545.765302	 0.028067	 6270.745345	 3	 10
  337	 1	 30720	 (nil)  1337093545.765313	 1337093545.773596	 0.008282	 7244.633025	 3	 10
  338	 1	 28672	 (nil)  1337093545.773601	 1337093545.781172	 0.007571	 7396.564982	 3	 10
  339	 1	 1024	 (nil)  1337093545.781177	 1337093545.781325	 0.000148	 13498.828977	 3	 10
  340	 1	 94208	 (nil)  1337093545.781330	 1337093545.810543	 0.029213	 6298.488520	 3	 10
  341	 1	 95232	 (nil)  1337093545.810550	 1337093545.840680	 0.030129	 6173.351903	 3	 10
  342	 1	 41984	 (nil)  1337093545.840689	 1337093545.852656	 0.011966	 6852.518100	 3	 10
  343	 1	 47104	 (nil)  1337093545.852663	 1337093545.866160	 0.013497	 6816.179060	 3	 10
  344	 1	 99328	 (nil)  1337093545.866168	 1337093545.897442	 0.031274	 6203.176410	 3	 10
  345	 1	 57344	 (nil)  1337093545.897450	 1337093545.913872	 0.016422	 6819.941191	 3	 10
  346	 1	 22528	 (nil)  1337093545.913878	 1337093545.919677	 0.005799	 7587.101651	 3	 10
  347	 1	 16384	 (nil)  1337093545.919683	 1337093545.923929	 0.004246	 7535.642411	 3	 10
  348	 1	 29696	 (nil)  1337093545.923935	 1337093545.932009	 0.008075	 7183.062833	 3	 10
  349	 1	 60416	 (nil)  1337093545.932016	 1337093545.950155	 0.018139	 6505.393909	 3	 10
  350	 1	 31744	 (nil)  1337093545.950163	 1337093545.958604	 0.008442	 7344.601848	 3	 10
  351	 1	 9216	 (nil)  1337093545.958610	 1337093545.960889	 0.002279	 7896.918885	 3	 10
  352	 1	 92160	 (nil)  1337093545.960894	 1337093545.989515	 0.028620	 6289.200060	 3	 10
  353	 1	 63488	 (nil)  1337093545.989523	 1337093546.008207	 0.018684	 6636.732150	 3	 10
  354	 1	 25600	 (nil)  1337093546.008212	 1337093546.014796	 0.006584	 7594.402986	 3	 10
  355	 1	 91136	 (nil)  1337093546.014802	 1337093546.043706	 0.028905	 6158.146744	 3	 10
  356	 1	 39936	 (nil)  1337093546.043715	 1337093546.054601	 0.010886	 7165.371633	 3	 10
  357	 1	 12288	 (nil)  1337093546.054606	 1337093546.057742	 0.003135	 7654.374379	 3	 10
  358	 1	 89088	 (nil)  1337093546.057747	 1337093546.085269	 0.027522	 6322.127205	 3	 10
  359	 1	 34816	 (nil)  1337093546.085279	 1337093546.094724	 0.009445	 7199.802132	 3	 10
  360	 1	 70656	 (nil)  1337093546.094769	 1337093546.115521	 0.020752	 6649.985163	 3	 10
  361	 1	 35840	 (nil)  1337093546.115529	 1337093546.125416	 0.009887	 7080.087830	 3	 10
  362	 1	 18432	 (nil)  1337093546.125422	 1337093546.130369	 0.004946	 7278.508908	 3	 10
  363	 1	 75776	 (nil)  1337093546.130374	 1337093546.153628	 0.023254	 6364.494789	 3	 10
  364	 1	 68608	 (nil)  1337093546.153637	 1337093546.173703	 0.020067	 6677.759721	 3	 10
  365	 1	 51200	 (nil)  1337093546.173710	 1337093546.188236	 0.014527	 6883.790127	 3	 10
  366	 1	 37888	 (nil)  1337093546.188242	 1337093546.198587	 0.010345	 7153.207198	 3	 10
  367	 1	 100352	 (nil)  1337093546.198593	 1337093546.230454	 0.031861	 6151.799932	 3	 10
  368	 1	 32768	 (nil)  1337093546.230464	 1337093546.239455	 0.008990	 7119.017175	 3	 10
  369	 1	 86016	 (nil)  1337093546.239460	 1337093546.266109	 0.026649	 6304.288177	 3	 10
  370	 1	 93184	 (nil)  1337093546.266119	 1337093546.294902	 0.028783	 6323.107895	 3	 10
  371	 1	 43008	 (nil)  1337093546.294909	 1337093546.306698	 0.011789	 7125.301998	 3	 10
  372	 1	 87040	 (nil)  1337093546.306704	 1337093546.333616	 0.026912	 6316.794528	 3	 10
  373	 1	 4096	 (nil)  1337093546.333624	 1337093546.334220	 0.000596	 13415.368311	 3	 10
  374	 1	 38912	 (nil)  1337093546.334225	 1337093546.345236	 0.011012	 6901.830184	 3	 10
  375	 1	 46080	 (nil)  1337093546.345242	 1337093546.358236	 0.012994	 6926.487419	 3	 10
  376	 1	 81920	 (nil)  1337093546.358244	 1337093546.382987	 0.024743	 6466.603167	 3	 10
  377	 1	 24576	 (nil)  1337093546.382995	 1337093546.389440	 0.006445	 7447.130031	 3	 10
  378	 1	 53248	 (nil)  1337093546.389451	 1337093546.405007	 0.015555	 6685.886017	 3	 10
  379	 1	 17408	 (nil)  1337093546.405014	 1337093546.409458	 0.004444	 7650.176337	 3	 10
  380	 1	 69632	 (nil)  1337093546.409463	 1337093546.429909	 0.020445	 6651.942722	 3	 10
  381	 1	 84992	 (nil)  1337093546.429914	 1337093546.456241	 0.026327	 6305.370698	 3	 10
  382	 1	 98304	 (nil)  1337093546.456252	 1337093546.487267	 0.031015	 6190.499466	 3	 10
  383	 1	 88064	 (nil)  1337093546.487276	 1337093546.514093	 0.026816	 6413.973034	 3	 10
  384	 1	 13312	 (nil)  1337093546.514098	 1337093546.517662	 0.003563	 7296.291744	 3	 10
  385	 1	 96256	 (nil)  1337093546.517667	 1337093546.548318	 0.030651	 6133.602255	 3	 10
  386	 1	 6144	 (nil)  1337093546.548326	 1337093546.549656	 0.001331	 9017.349380	 3	 10
  387	 1	 26624	 (nil)  1337093546.549663	 1337093546.556697	 0.007034	 7392.420381	 3	 10
  388	 1	 7168	 (nil)  1337093546.556704	 1337093546.558510	 0.001806	 7750.865052	 3	 10
  389	 1	 58368	 (nil)  1337093546.558516	 1337093546.575297	 0.016782	 6793.178695	 3	 10
  390	 1	 101376	 (nil)  1337093546.575304	 1337093546.606934	 0.031631	 6259.737171	 3	 10
  391	 1	 11264	 (nil)  1337093546.606940	 1337093546.609882	 0.002942	 7477.667267	 3	 10
  392	 1	 65536	 (nil)  1337093546.609888	 1337093546.629119	 0.019231	 6655.875828	 3	 10
  393	 1	 78848	 (nil)  1337093546.629126	 1337093546.652943	 0.023818	 6465.814128	 3	 10
  394	 1	 45056	 (nil)  1337093546.652951	 1337093546.665776	 0.012825	 6861.455059	 3	 10
  395	 1	 33792	 (nil)  1337093546.665790	 1337093546.674835	 0.009045	 7296.841827	 3	 10
  396	 1	 54272	 (nil)  1337093546.674840	 1337093546.690317	 0.015477	 6848.857032	 3	 10
  397	 1	 55296	 (nil)  1337093546.690324	 1337093546.706154	 0.015830	 6822.388958	 3	 10
  398	 1	 66560	 (nil)  1337093546.706160	 1337093546.725560	 0.019400	 6701.000532	 3	 10
  399	 1	 49152	 (nil)  1337093546.725568	 1337093546.739679	 0.014111	 6803.117358	 3	 10
  400	 2	 74752	 (nil)  1337093546.739689	 1337093546.771822	 0.032133	 4543.546878	 3	 10
  401	 2	 79872	 (nil)  1337093546.771832	 1337093546.806419	 0.034587	 4510.415373	 3	 10
  402	 2	 76800	 (nil)  1337093546.806425	 1337093546.839767	 0.033343	 4498.752721	 3	 10
  403	 2	 97280	 (nil)  1337093546.839775	 1337093546.885557	 0.045782	 4150.087341	 3	 10
  404	 2	 52224	 (nil)  1337093546.885569	 1337093546.907279	 0.021710	 4698.262173	 3	 10
  405	 2	 80896	 (nil)  1337093546.907322	 1337093546.943536	 0.036213	 4363.063793	 3	 10
  406	 2	 82944	 (nil)  1337093546.943547	 1337093546.980901	 0.037353	 4336.975036	 3	 10
  407	 2	 50176	 (nil)  1337093546.980913	 1337093547.001407	 0.020494	 4781.942682	 3	 10
  408	 2	 20480	 (nil)  1337093547.001413	 1337093547.008751	 0.007338	 5450.832942	 3	 10
  409	 2	 14336	 (nil)  1337093547.008764	 1337093547.013755	 0.004991	 5609.544078	 3	 10
  410	 2	 59392	 (nil)  1337093547.013760	 1337093547.039019	 0.025259	 4592.425776	 3	 10
  411	 2	 64512	 (nil)  1337093547.039026	 1337093547.067319	 0.028293	 4453.367674	 3	 10
  412	 2	 2048	 (nil)  1337093547.067332	 1337093547.067645	 0.000314	 12754.044626	 3	 10
  413	 2	 67584	 (nil)  1337093547.067650	 1337093547.096570	 0.028920	 4564.321034	 3	 10
  414	 2	 62464	 (nil)  1337093547.096576	 1337093547.123512	 0.026936	 4529.255034	 3	 10
  415	 2	 61440	 (nil)  1337093547.123520	 1337093547.150005	 0.026485	 4530.835051	 3	 10
  416	 2	 23552	 (nil)  1337093547.150013	 1337093547.158674	 0.008661	 5311.442799	 3	 10
  417	 2	 40960	 (nil)  1337093547.158680	 1337093547.174398	 0.015718	 5089.786377	 3	 10
  418	 2	 10240	 (nil)  1337093547.174405	 1337093547.177940	 0.003535	 5657.044505	 3	 10
  419	 2	 72704	 (nil)  1337093547.177945	 1337093547.209281	 0.031335	 4531.602117	 3	 10
  420	 2	 5120	 (nil)  1337093547.209288	 1337093547.210421	 0.001133	 8825.439860	 3	 10
  421	 2	 73728	 (nil)  1337093547.210425	 1337093547.242378	 0.031952	 4506.745612	 3	 10
  422	 2	 27648	 (nil)  1337093547.242387	 1337093547.252754	 0.010367	 5208.910092	 3	 10
  423	 2	 56320	 (nil)  1337093547.252762	 1337093547.276679	 0.023916	 4599.382688	 3	 10
  424	 2	 71680	 (nil)  1337093547.276689	 1337093547.307240	 0.030551	 4582.474092	 3	 10
  425	 2	 8192	 (nil)  1337093547.307246	 1337093547.310171	 0.002925	 5469.982616	 3	 10
  426	 2	 48128	 (nil)  1337093547.310177	 1337093547.329096	 0.018919	 4968.512580	 3	 10
  427	 2	 36864	 (nil)  1337093547.329102	 1337093547.343318	 0.014217	 5064.421552	 3	 10
  428	 2	 83968	 (nil)  1337093547.343325	 1337093547.381384	 0.038059	 4309.103899	 3	 10
  429	 2	 19456	 (nil)  1337093547.381395	 1337093547.388340	 0.006944	 5472.354171	 3	 10
  430	 2	 3072	 (nil)  1337093547.388345	 1337093547.388797	 0.000453	 13253.429877	 3	 10
  431	 2	 44032	 (nil)  1337093547.388802	 1337093547.405923	 0.017122	 5022.904738	 3	 10
  432	 2	 102400	 (nil)  1337093547.405930	 1337093547.455040	 0.049110	 4072.459148	 3	 10
  433	 2	 77824	 (nil)  1337093547.455051	 1337093547.488848	 0.033797	 4497.428758	 3	 10
  434	 2	 21504	 (nil)  1337093547.488860	 1337093547.496656	 0.007796	 5387.108649	 3	 10
  435	 2	 15360	 (nil)  1337093547.496661	 1337093547.502067	 0.005406	 5549.266387	 3	 10
  436	 2	 90112	 (nil)  1337093547.502073	 1337093547.543610	 0.041537	 4237.173882	 3	 10
  437	 2	 30720	 (nil)  1337093547.543619	 1337093547.555086	 0.011467	 5232.485432	 3	 10
  438	 2	 28672	 (nil)  1337093547.555091	 1337093547.565910	 0.010819	 5176.270019	 3	 10
  439	 2	 1024	 (nil)  1337093547.565920	 1337093547.566080	 0.000160	 12462.922805	 3	 10
  440	 2	 94208	 (nil)  1337093547.566085	 1337093547.610006	 0.043921	 4189.323832	 3	 10
  441	 2	 95232	 (nil)  1337093547.610014	 1337093547.655255	 0.045241	 4111.305779	 3	 10
  442	 2	 41984	 (nil)  1337093547.655264	 1337093547.671810	 0.016546	 4955.961747	 3	 10
  443	 2	 47104	 (nil)  1337093547.671818	 1337093547.690274	 0.018456	 4984.943844	 3	 10
  444	 2	 99328	 (nil)  1337093547.690281	 1337093547.737278	 0.046997	 4127.895831	 3	 10
  445	 2	 57344	 (nil)  1337093547.737290	 1337093547.762185	 0.024896	 4498.778080	 3	 10
  446	 2	 22528	 (nil)  1337093547.762194	 1337093547.770694	 0.008500	 5176.593608	 3	 10
  447	 2	 16384	 (nil)  1337093547.770700	 1337093547.776772	 0.006072	 5270.039283	 3	 10
  448	 2	 29696	 (nil)  1337093547.776779	 1337093547.787912	 0.011133	 5209.843982	 3	 10
  449	 2	 60416	 (nil)  1337093547.787918	 1337093547.813310	 0.025392	 4647.050234	 3	 10
  450	 2	 31744	 (nil)  1337093547.813350	 1337093547.825324	 0.011973	 5178.320477	 3	 10
  451	 2	 9216	 (nil)  1337093547.825331	 1337093547.828473	 0.003142	 5728.521545	 3	 10
  452	 2	 92160	 (nil)  1337093547.828480	 1337093547.871976	 0.043496	 4138.278840	 3	 10
  453	 2	 63488	 (nil)  1337093547.871989	 1337093547.899268	 0.027279	 4545.613175	 3	 10
  454	 2	 25600	 (nil)  1337093547.899277	 1337093547.908660	 0.009383	 5328.949668	 3	 10
  455	 2	 91136	 (nil)  1337093547.908665	 1337093547.951167	 0.042502	 4188.061761	 3	 10
  456	 2	 39936	 (nil)  1337093547.951178	 1337093547.966661	 0.015483	 5037.689018	 3	 10
  457	 2	 12288	 (nil)  1337093547.966670	 1337093547.970967	 0.004296	 5586.228086	 3	 10
  458	 2	 89088	 (nil)  1337093547.970972	 1337093548.011913	 0.040941	 4249.981986	 3	 10
  459	 2	 34816	 (nil)  1337093548.011921	 1337093548.025146	 0.013225	 5141.872971	 3	 10
  460	 2	 70656	 (nil)  1337093548.025151	 1337093548.056118	 0.030967	 4456.338203	 3	 10
  461	 2	 35840	 (nil)  1337093548.056127	 1337093548.069864	 0.013738	 5095.537321	 3	 10
  462	 2	 18432	 (nil)  1337093548.069872	 1337093548.076487	 0.006615	 5441.920200	 3	 10
  463	 2	 75776	 (nil)  1337093548.076492	 1337093548.109513	 0.033021	 4481.999156	 3	 10
  464	 2	 68608	 (nil)  1337093548.109524	 1337093548.139454	 0.029930	 4477.066743	 3	 10
  465	 2	 51200	 (nil)  1337093548.139460	 1337093548.161413	 0.021953	 4555.209319	 3	 10
  466	 2	 37888	 (nil)  1337093548.161424	 1337093548.175733	 0.014309	 5171.564919	 3	 10
  467	 2	 100352	 (nil)  1337093548.175740	 1337093548.222742	 0.047003	 4169.985014	 3	 10
  468	 2	 32768	 (nil)  1337093548.222749	 1337093548.235233	 0.012483	 5126.835918	 3	 10
  469	 2	 86016	 (nil)  1337093548.235242	 1337093548.282188	 0.046945	 3578.640780	 3	 10
  470	 2	 93184	 (nil)  1337093548.282201	 1337093548.325486	 0.043285	 4204.695480	 3	 10
  471	 2	 43008	 (nil)  1337093548.325494	 1337093548.344175	 0.018681	 4496.477732	 3	 10
  472	 2	 87040	 (nil)  1337093548.344187	 1337093548.392920	 0.048733	 3488.396311	 3	 10
  473	 2	 4096	 (nil)  1337093548.392939	 1337093548.393841	 0.000902	 8870.477720	 3	 10
  474	 2	 38912	 (nil)  1337093548.393849	 1337093548.408963	 0.015115	 5028.221888	 3	 10
  475	 2	 46080	 (nil)  1337093548.408969	 1337093548.426907	 0.017937	 5017.464120	 3	 10
  476	 2	 81920	 (nil)  1337093548.426913	 1337093548.469773	 0.042860	 3733.119737	 3	 10
  477	 2	 24576	 (nil)  1337093548.469789	 1337093548.481567	 0.011779	 4075.217997	 3	 10
  478	 2	 53248	 (nil)  1337093548.481578	 1337093548.504670	 0.023092	 4503.638420	 3	 10
  479	 2	 17408	 (nil)  1337093548.504678	 1337093548.510823	 0.006145	 5533.007645	 3	 10
  480	 2	 69632	 (nil)  1337093548.510829	 1337093548.541924	 0.031095	 4373.698302	 3	 10
  481	 2	 84992	 (nil)  1337093548.541935	 1337093548.588413	 0.046478	 3571.589093	 3	 10
  482	 2	 98304	 (nil)  1337093548.588425	 1337093548.634585	 0.046160	 4159.469286	 3	 10
  483	 2	 88064	 (nil)  1337093548.634593	 1337093548.683384	 0.048792	 3525.179981	 3	 10
  484	 2	 13312	 (nil)  1337093548.683399	 1337093548.689064	 0.005665	 4589.940052	 3	 10
  485	 2	 96256	 (nil)  1337093548.689078	 1337093548.734764	 0.045686	 4115.065550	 3	 10
  486	 2	 6144	 (nil)  1337093548.734779	 1337093548.736681	 0.001902	 6307.878067	 3	 10
  487	 2	 26624	 (nil)  1337093548.736691	 1337093548.749401	 0.012710	 4091.331743	 3	 10
  488	 2	 7168	 (nil)  1337093548.749411	 1337093548.752411	 0.003000	 4666.627778	 3	 10
  489	 2	 58368	 (nil)  1337093548.752420	 1337093548.782931	 0.030511	 3736.337663	 3	 10
  490	 2	 101376	 (nil)  1337093548.782945	 1337093548.831602	 0.048657	 4069.336730	 3	 10
  491	 2	 11264	 (nil)  1337093548.831620	 1337093548.835490	 0.003869	 5685.500836	 3	 10
  492	 2	 65536	 (nil)  1337093548.835495	 1337093548.870125	 0.034630	 3696.209468	 3	 10
  493	 2	 78848	 (nil)  1337093548.870141	 1337093548.907949	 0.037809	 4073.142424	 3	 10
  494	 2	 45056	 (nil)  1337093548.907960	 1337093548.925422	 0.017462	 5039.470219	 3	 10
  495	 2	 33792	 (nil)  1337093548.925466	 1337093548.938307	 0.012840	 5140.060816	 3	 10
  496	 2	 54272	 (nil)  1337093548.938320	 1337093548.963856	 0.025536	 4151.056475	 3	 10
  497	 2	 55296	 (nil)  1337093548.963869	 1337093548.987352	 0.023483	 4598.986673	 3	 10
  498	 2	 66560	 (nil)  1337093548.987361	 1337093549.015884	 0.028523	 4557.752349	 3	 10
  499	 2	 49152	 (nil)  1337093549.015891	 1337093549.035281	 0.019391	 4950.774348	 3	 10
  500	 4	 74752	 (nil)  1337093549.035287	 1337093549.070372	 0.035085	 4161.328789	 3	 10
  501	 4	 79872	 (nil)  1337093549.070383	 1337093549.107994	 0.037611	 4147.689988	 3	 10
  502	 4	 76800	 (nil)  1337093549.108002	 1337093549.143524	 0.035522	 4222.770632	 3	 10
  503	 4	 97280	 (nil)  1337093549.143534	 1337093549.193312	 0.049779	 3816.908523	 3	 10
  504	 4	 52224	 (nil)  1337093549.193323	 1337093549.216862	 0.023538	 4333.376511	 3	 10
  505	 4	 80896	 (nil)  1337093549.216867	 1337093549.255531	 0.038663	 4086.597589	 3	 10
  506	 4	 82944	 (nil)  1337093549.255541	 1337093549.296097	 0.040556	 3994.512034	 3	 10
  507	 4	 50176	 (nil)  1337093549.296110	 1337093549.318896	 0.022786	 4300.892549	 3	 10
  508	 4	 20480	 (nil)  1337093549.318903	 1337093549.326655	 0.007752	 5160.274914	 3	 10
  509	 4	 14336	 (nil)  1337093549.326660	 1337093549.331967	 0.005307	 5275.772147	 3	 10
  510	 4	 59392	 (nil)  1337093549.331974	 1337093549.359852	 0.027878	 4161.009398	 3	 10
  511	 4	 64512	 (nil)  1337093549.359863	 1337093549.389810	 0.029947	 4207.500571	 3	 10
  512	 4	 2048	 (nil)  1337093549.389821	 1337093549.390113	 0.000292	 13704.590695	 3	 10
  513	 4	 67584	 (nil)  1337093549.390117	 1337093549.421119	 0.031002	 4257.801906	 3	 10
  514	 4	 62464	 (nil)  1337093549.421128	 1337093549.449910	 0.028783	 4238.647971	 3	 10
  515	 4	 61440	 (nil)  1337093549.449919	 1337093549.478389	 0.028470	 4215.012864	 3	 10
  516	 4	 23552	 (nil)  1337093549.478401	 1337093549.487121	 0.008720	 5275.236617	 3	 10
  517	 4	 40960	 (nil)  1337093549.487126	 1337093549.503885	 0.016759	 4773.616318	 3	 10
  518	 4	 10240	 (nil)  1337093549.503892	 1337093549.507500	 0.003608	 5542.653490	 3	 10
  519	 4	 72704	 (nil)  1337093549.507507	 1337093549.540824	 0.033317	 4262.106973	 3	 10
  520	 4	 5120	 (nil)  1337093549.540829	 1337093549.541879	 0.001050	 9522.784691	 3	 10
  521	 4	 73728	 (nil)  1337093549.541884	 1337093549.576321	 0.034437	 4181.568951	 3	 10
  522	 4	 27648	 (nil)  1337093549.576332	 1337093549.586854	 0.010522	 5132.259272	 3	 10
  523	 4	 56320	 (nil)  1337093549.586858	 1337093549.612610	 0.025752	 4271.516707	 3	 10
  524	 4	 71680	 (nil)  1337093549.612617	 1337093549.645608	 0.032991	 4243.562031	 3	 10
  525	 4	 8192	 (nil)  1337093549.645615	 1337093549.648542	 0.002928	 5465.212556	 3	 10
  526	 4	 48128	 (nil)  1337093549.648548	 1337093549.669159	 0.020611	 4560.752474	 3	 10
  527	 4	 36864	 (nil)  1337093549.669170	 1337093549.683761	 0.014592	 4934.370812	 3	 10
  528	 4	 83968	 (nil)  1337093549.683767	 1337093549.723693	 0.039926	 4107.607803	 3	 10
  529	 4	 19456	 (nil)  1337093549.723700	 1337093549.730900	 0.007200	 5278.090065	 3	 10
  530	 4	 3072	 (nil)  1337093549.730906	 1337093549.731392	 0.000486	 12349.338075	 3	 10
  531	 4	 44032	 (nil)  1337093549.731397	 1337093549.749810	 0.018413	 4670.567749	 3	 10
  532	 4	 102400	 (nil)  1337093549.749819	 1337093549.802525	 0.052706	 3794.646626	 3	 10
  533	 4	 77824	 (nil)  1337093549.802537	 1337093549.838313	 0.035776	 4248.679932	 3	 10
  534	 4	 21504	 (nil)  1337093549.838319	 1337093549.846317	 0.007998	 5251.192677	 3	 10
  535	 4	 15360	 (nil)  1337093549.846323	 1337093549.851988	 0.005665	 5295.213445	 3	 10
  536	 4	 90112	 (nil)  1337093549.851994	 1337093549.897047	 0.045053	 3906.485225	 3	 10
  537	 4	 30720	 (nil)  1337093549.897059	 1337093549.908912	 0.011853	 5062.151835	 3	 10
  538	 4	 28672	 (nil)  1337093549.908918	 1337093549.919807	 0.010889	 5142.801359	 3	 10
  539	 4	 1024	 (nil)  1337093549.919812	 1337093549.919969	 0.000157	 12756.566443	 3	 10
  540	 4	 94208	 (nil)  1337093549.920012	 1337093549.967711	 0.047699	 3857.514484	 3	 10
  541	 4	 95232	 (nil)  1337093549.967725	 1337093550.015709	 0.047984	 3876.331681	 3	 10
  542	 4	 41984	 (nil)  1337093550.015719	 1337093550.032886	 0.017167	 4776.629374	 3	 10
  543	 4	 47104	 (nil)  1337093550.032892	 1337093550.052721	 0.019829	 4639.672447	 3	 10
  544	 4	 99328	 (nil)  1337093550.052729	 1337093550.103203	 0.050474	 3843.586020	 3	 10
  545	 4	 57344	 (nil)  1337093550.103214	 1337093550.129359	 0.026146	 4283.699144	 3	 10
  546	 4	 22528	 (nil)  1337093550.129368	 1337093550.137697	 0.008329	 5282.659502	 3	 10
  547	 4	 16384	 (nil)  1337093550.137702	 1337093550.143699	 0.005997	 5335.956845	 3	 10
  548	 4	 29696	 (nil)  1337093550.143705	 1337093550.155330	 0.011625	 4989.194523	 3	 10
  549	 4	 60416	 (nil)  1337093550.155341	 1337093550.183391	 0.028050	 4206.705681	 3	 10
  550	 4	 31744	 (nil)  1337093550.183401	 1337093550.195691	 0.012290	 5044.665222	 3	 10
  551	 4	 9216	 (nil)  1337093550.195699	 1337093550.198947	 0.003248	 5541.643294	 3	 10
  552	 4	 92160	 (nil)  1337093550.198951	 1337093550.244783	 0.045832	 3927.401032	 3	 10
  553	 4	 63488	 (nil)  1337093550.244801	 1337093550.274738	 0.029937	 4142.064114	 3	 10
  554	 4	 25600	 (nil)  1337093550.274749	 1337093550.284242	 0.009493	 5266.980614	 3	 10
  555	 4	 91136	 (nil)  1337093550.284247	 1337093550.329434	 0.045186	 3939.260760	 3	 10
  556	 4	 39936	 (nil)  1337093550.329440	 1337093550.345689	 0.016249	 4800.423323	 3	 10
  557	 4	 12288	 (nil)  1337093550.345694	 1337093550.350114	 0.004420	 5430.191048	 3	 10
  558	 4	 89088	 (nil)  1337093550.350119	 1337093550.394705	 0.044586	 3902.574690	 3	 10
  559	 4	 34816	 (nil)  1337093550.394718	 1337093550.408345	 0.013627	 4990.186578	 3	 10
  560	 4	 70656	 (nil)  1337093550.408350	 1337093550.440762	 0.032412	 4257.727397	 3	 10
  561	 4	 35840	 (nil)  1337093550.440769	 1337093550.455039	 0.014270	 4905.484970	 3	 10
  562	 4	 18432	 (nil)  1337093550.455045	 1337093550.462198	 0.007153	 5032.814651	 3	 10
  563	 4	 75776	 (nil)  1337093550.462207	 1337093550.497572	 0.035366	 4184.825889	 3	 10
  564	 4	 68608	 (nil)  1337093550.497583	 1337093550.528972	 0.031389	 4269.021773	 3	 10
  565	 4	 51200	 (nil)  1337093550.528982	 1337093550.552143	 0.023160	 4317.735227	 3	 10
  566	 4	 37888	 (nil)  1337093550.552148	 1337093550.568041	 0.015893	 4656.282946	 3	 10
  567	 4	 100352	 (nil)  1337093550.568052	 1337093550.619446	 0.051394	 3813.708511	 3	 10
  568	 4	 32768	 (nil)  1337093550.619457	 1337093550.632080	 0.012624	 5069.825358	 3	 10
  569	 4	 86016	 (nil)  1337093550.632085	 1337093550.674292	 0.042207	 3980.386928	 3	 10
  570	 4	 93184	 (nil)  1337093550.674303	 1337093550.721236	 0.046932	 3877.910012	 3	 10
  571	 4	 43008	 (nil)  1337093550.721243	 1337093550.739242	 0.017999	 4666.995171	 3	 10
  572	 4	 87040	 (nil)  1337093550.739249	 1337093550.781992	 0.042742	 3977.324664	 3	 10
  573	 4	 4096	 (nil)  1337093550.782002	 1337093550.782620	 0.000618	 12942.868560	 3	 10
  574	 4	 38912	 (nil)  1337093550.782625	 1337093550.798429	 0.015804	 4809.038461	 3	 10
  575	 4	 46080	 (nil)  1337093550.798434	 1337093550.817626	 0.019192	 4689.540194	 3	 10
  576	 4	 81920	 (nil)  1337093550.817634	 1337093550.856467	 0.038832	 4120.308263	 3	 10
  577	 4	 24576	 (nil)  1337093550.856477	 1337093550.865993	 0.009516	 5044.071524	 3	 10
  578	 4	 53248	 (nil)  1337093550.866001	 1337093550.890246	 0.024245	 4289.600499	 3	 10
  579	 4	 17408	 (nil)  1337093550.890260	 1337093550.896667	 0.006408	 5306.058114	 3	 10
  580	 4	 69632	 (nil)  1337093550.896673	 1337093550.928578	 0.031905	 4262.695239	 3	 10
  581	 4	 84992	 (nil)  1337093550.928585	 1337093550.970022	 0.041437	 4006.071853	 3	 10
  582	 4	 98304	 (nil)  1337093550.970034	 1337093551.019809	 0.049775	 3857.349897	 3	 10
  583	 4	 88064	 (nil)  1337093551.019822	 1337093551.063305	 0.043483	 3955.594951	 3	 10
  584	 4	 13312	 (nil)  1337093551.063317	 1337093551.068285	 0.004968	 5233.595496	 3	 10
  585	 4	 96256	 (nil)  1337093551.068336	 1337093551.116993	 0.048656	 3863.850725	 3	 10
  586	 4	 6144	 (nil)  1337093551.117006	 1337093551.118835	 0.001830	 6558.857272	 3	 10
  587	 4	 26624	 (nil)  1337093551.118840	 1337093551.128857	 0.010017	 5191.129398	 3	 10
  588	 4	 7168	 (nil)  1337093551.128863	 1337093551.131295	 0.002432	 5755.958856	 3	 10
  589	 4	 58368	 (nil)  1337093551.131299	 1337093551.157948	 0.026649	 4277.840486	 3	 10
  590	 4	 101376	 (nil)  1337093551.157957	 1337093551.210339	 0.052381	 3779.971667	 3	 10
  591	 4	 11264	 (nil)  1337093551.210351	 1337093551.214344	 0.003993	 5509.931652	 3	 10
  592	 4	 65536	 (nil)  1337093551.214349	 1337093551.244552	 0.030204	 4237.881843	 3	 10
  593	 4	 78848	 (nil)  1337093551.244562	 1337093551.281717	 0.037156	 4144.738912	 3	 10
  594	 4	 45056	 (nil)  1337093551.281730	 1337093551.300313	 0.018583	 4735.549940	 3	 10
  595	 4	 33792	 (nil)  1337093551.300318	 1337093551.313379	 0.013060	 5053.558532	 3	 10
  596	 4	 54272	 (nil)  1337093551.313384	 1337093551.337781	 0.024397	 4344.779039	 3	 10
  597	 4	 55296	 (nil)  1337093551.337786	 1337093551.363306	 0.025520	 4232.017540	 3	 10
  598	 4	 66560	 (nil)  1337093551.363318	 1337093551.394568	 0.031250	 4160.045394	 3	 10
  599	 4	 49152	 (nil)  1337093551.394580	 1337093551.415602	 0.021022	 4566.698559	 3	 10
# ID of this measurement = 0; Total time: 11.919629 sec
