############################################
# Mon May 14 13:30:38 UTC 2012
############################################
# EXECUTION PRIORITY: 
# FILE NAME:  data/Snow2Data20.dat
############################################
# VERSION:
# Linux version 3.2.0-1000-ux500 (buildd@bukavac) (gcc version 4.6.1 (Ubuntu/Linaro 4.6.1-9ubuntu3) ) #7-Ubuntu SMP PREEMPT Mon Feb 20 20:14:21 UTC 2012
############################################
# CPU INFO:
# Processor	: ARMv7 Processor rev 1 (v7l)
# processor	: 0
# BogoMIPS	: 4.80
# 
# processor	: 1
# BogoMIPS	: 4.80
# 
# Features	: swp half thumb fastmult vfp edsp neon vfpv3 tls 
# CPU implementer	: 0x41
# CPU architecture: 7
# CPU variant	: 0x2
# CPU part	: 0xc09
# CPU revision	: 1
# 
# Hardware	: ST-Ericsson Snowball platform
# Revision	: 0000
# Serial		: 0000000000000000
############################################
# COMPILATION:
# gcc  -I$HOME/include -L$HOME/lib/ -g -Wall -O2 -DVERBOSE -DTYPE="int" -DVECTOR="1" -D_GNU_SOURCE -mfpu=neon -mcpu=cortex-a9 -mfloat-abi=softfp -c -o kernel.o kernel.c
# kernel.c: In function ‘measure’:
# kernel.c:199:7: warning: unused variable ‘sum’ [-Wunused-variable]
# kernel.c:197:9: warning: unused variable ‘j’ [-Wunused-variable]
# kernel.c:197:7: warning: unused variable ‘i’ [-Wunused-variable]
# kernel.c: In function ‘exemode3’:
# kernel.c:305:11: warning: unused variable ‘sum’ [-Wunused-variable]
# kernel.c:305:9: warning: unused variable ‘j’ [-Wunused-variable]
# kernel.c:305:7: warning: unused variable ‘i’ [-Wunused-variable]
# kernel.c: In function ‘exemode4’:
# kernel.c:328:11: warning: unused variable ‘sum’ [-Wunused-variable]
# kernel.c:328:9: warning: unused variable ‘j’ [-Wunused-variable]
# kernel.c:328:7: warning: unused variable ‘i’ [-Wunused-variable]
# gcc  -I$HOME/include -L$HOME/lib/ -g -Wall -O2 -DVERBOSE -DTYPE="int" -DVECTOR="1" -D_GNU_SOURCE -mfpu=neon -mcpu=cortex-a9 -mfloat-abi=softfp kernel.o  -lm -lrt -o kernel
# rm kernel.o
############################################
# #PARAMETERS FOR INPUT GENERATOR:
# 42	=SEED           //Seed for random number generator 
# 1	=N_ARRAYS 	//Number of arrays
# 2	=N_REP 		//Number of repetitions of the whole measerement for 1 stride
# 1024	=N_CYCLES 	//Number of loops for 1 N_REP, for small values of memory should be 32768
# 1	=MIN_MEM	//Starting array size, the smallest size; When MODE=4 these values are ignored
# 50	=MAX_MEM 	//Ending array size, the biggest size; When MODE=4 these values are ignored
# 1024	=TYPE_MEM	//The size of one block in memory, if 1024=>1KB
# 1	=MIN_STRIDE	//Starting stride size, the smallest size
# 4	=MAX_STRIDE	//Ending stride size, the biggest size
# 3	=MODE		//Mode for producing input file: 1=REGULAR; 2=INVERT; 3=RANDOM; 123=ALL 3 MODES; 4=FIXED MEMORY; 5=FIXED STRIDES
# #THESE PARAMETERS ARE USED ONLY IN SPECIAL CASES (MODE=4 || MODE=5):
# 1 2 4 8 16 32 64 128 256 512 1024 2048 4096	0//For FIXED MEMORY MODE: Values of the MEM, 0 must be at the end(was easier to implement)
# 1 13 17 3 9					0//For FIXED STRIDES MODE: Values of the STRIDE, 0 must be at the end(was easier to implement)
# 
# !PARAMETERS FOR KERNEL:
# 2	=GCC		//GCC optimization 0=default; 2=-02; 3=-03
# 1	=CORE		//Core on which the program will be executed. 99 is for not specified.
# 3	=ALLOCTYPE	//Type of the buffer: 1=int; 2=long long int
# 42	=SEED           //Seed for random number generator 
# 2	=EXEMODE	//Execution mode: 1=STANDARD; 2=LOOP UNROLLING; 3=SAME NUMBER OF ACCESSES PER MEMORY SIZE
# 1024	=ACCESSES_SQR	//If EXEMODE=3, the number of total accesses for each memory size is ACCESSES_SQR*ACCESSES_SQR
# 1	=ALLOCMODE	//Allocation mode of memory: 1=MALLOC; 2=STATIC FOR BIGGEST MEMORY SIZE; 3=ALLOCATING WITHOUT FREEING; 4=ONE BIG FOR RANDOM ACCESS
# 2100	=STATIC_SIZE	//If ALLOCMODE=2 or ALLOCMODE=4, this is the size of staticly allocated memory in TYPE_MEM, 2100 default value for ALLOCMODE=4
# 1024	=TYPE_MEM	//The size of one block in memory, if 1024=>1KB

################################################
# MEASUREMENTS=
 NUM	 STRIDE	 SIZE	 ADDRESS    START_TIME		 END_TIME		 TIME		 BANDWIDTH	 MODE	 EXEMODE
  0	 1	 19456	 (nil)  1337002239.768236	 1337002239.847917	 0.079681	 238.449635	 3	 8
  1	 1	 47104	 (nil)  1337002239.850175	 1337002240.020280	 0.170105	 270.421242	 3	 8
  2	 1	 7168	 (nil)  1337002240.020677	 1337002240.026689	 0.006012	 1164.345156	 3	 8
  3	 1	 43008	 (nil)  1337002240.028612	 1337002240.182420	 0.153809	 273.066666	 3	 8
  4	 1	 11264	 (nil)  1337002240.183000	 1337002240.209245	 0.026245	 419.125584	 3	 8
  5	 1	 1024	 (nil)  1337002240.209337	 1337002240.210191	 0.000854	 1170.285971	 3	 8
  6	 1	 22528	 (nil)  1337002240.211198	 1337002240.284807	 0.073608	 298.878936	 3	 8
  7	 1	 3072	 (nil)  1337002240.285020	 1337002240.287584	 0.002563	 1170.285971	 3	 8
  8	 1	 36864	 (nil)  1337002240.289201	 1337002240.416826	 0.127625	 282.077476	 3	 8
  9	 1	 23552	 (nil)  1337002240.417924	 1337002240.495500	 0.077576	 296.484656	 3	 8
  10	 1	 40960	 (nil)  1337002240.497331	 1337002240.640123	 0.142792	 280.128235	 3	 8
  11	 1	 10240	 (nil)  1337002240.640642	 1337002240.659257	 0.018616	 537.180318	 3	 8
  12	 1	 16384	 (nil)  1337002240.660020	 1337002240.707780	 0.047760	 335.008312	 3	 8
  13	 1	 13312	 (nil)  1337002240.708421	 1337002240.743577	 0.035156	 369.777778	 3	 8
  14	 1	 31744	 (nil)  1337002240.744951	 1337002240.854265	 0.109314	 283.586825	 3	 8
  15	 1	 8192	 (nil)  1337002240.854722	 1337002240.861650	 0.006927	 1154.819422	 3	 8
  16	 1	 33792	 (nil)  1337002240.863206	 1337002240.979265	 0.116058	 284.339731	 3	 8
  17	 1	 21504	 (nil)  1337002240.980241	 1337002241.049699	 0.069458	 302.340953	 3	 8
  18	 1	 5120	 (nil)  1337002241.050004	 1337002241.054307	 0.004303	 1161.985685	 3	 8
  19	 1	 27648	 (nil)  1337002241.055559	 1337002241.147844	 0.092285	 292.571429	 3	 8
  20	 1	 50176	 (nil)  1337002241.150011	 1337002241.418687	 0.268677	 182.375285	 3	 8
  21	 1	 39936	 (nil)  1337002241.420763	 1337002241.579362	 0.158600	 245.901867	 3	 8
  22	 1	 20480	 (nil)  1337002241.580369	 1337002241.646471	 0.066101	 302.566945	 3	 8
  23	 1	 34816	 (nil)  1337002241.648057	 1337002241.769487	 0.121429	 279.997986	 3	 8
  24	 1	 37888	 (nil)  1337002241.771196	 1337002241.903795	 0.132599	 279.037054	 3	 8
  25	 1	 30720	 (nil)  1337002241.905168	 1337002242.009996	 0.104828	 286.183411	 3	 8
  26	 1	 26624	 (nil)  1337002242.011156	 1337002242.100633	 0.089478	 290.575710	 3	 8
  27	 1	 14336	 (nil)  1337002242.101335	 1337002242.140764	 0.039429	 355.071225	 3	 8
  28	 1	 4096	 (nil)  1337002242.140977	 1337002242.144426	 0.003448	 1159.928641	 3	 8
  29	 1	 45056	 (nil)  1337002242.146410	 1337002242.304399	 0.157990	 278.499515	 3	 8
  30	 1	 6144	 (nil)  1337002242.304735	 1337002242.309892	 0.005157	 1163.360880	 3	 8
  31	 1	 2048	 (nil)  1337002242.310014	 1337002242.311723	 0.001709	 1170.285971	 3	 8
  32	 1	 44032	 (nil)  1337002242.313707	 1337002242.468919	 0.155212	 277.039717	 3	 8
  33	 1	 48128	 (nil)  1337002242.471056	 1337002242.642839	 0.171783	 273.600285	 3	 8
  34	 1	 12288	 (nil)  1337002242.643480	 1337002242.671281	 0.027802	 431.631185	 3	 8
  35	 1	 24576	 (nil)  1337002242.672441	 1337002242.754838	 0.082397	 291.271111	 3	 8
  36	 1	 28672	 (nil)  1337002242.756151	 1337002242.852190	 0.096039	 291.548775	 3	 8
  37	 1	 32768	 (nil)  1337002242.853715	 1337002242.966203	 0.112488	 284.475314	 3	 8
  38	 1	 38912	 (nil)  1337002242.967973	 1337002243.102861	 0.134888	 281.715836	 3	 8
  39	 1	 25600	 (nil)  1337002243.104021	 1337002243.189287	 0.085266	 293.199715	 3	 8
  40	 1	 18432	 (nil)  1337002243.190141	 1337002243.245897	 0.055756	 322.837428	 3	 8
  41	 1	 49152	 (nil)  1337002243.248094	 1337002243.420244	 0.172150	 278.827162	 3	 8
  42	 1	 9216	 (nil)  1337002243.420732	 1337002243.439256	 0.018524	 485.851702	 3	 8
  43	 1	 15360	 (nil)  1337002243.439989	 1337002243.483079	 0.043091	 348.101977	 3	 8
  44	 1	 41984	 (nil)  1337002243.484972	 1337002243.631486	 0.146515	 279.835037	 3	 8
  45	 1	 46080	 (nil)  1337002243.633623	 1337002243.795640	 0.162018	 277.747219	 3	 8
  46	 1	 29696	 (nil)  1337002243.796983	 1337002243.899431	 0.102448	 283.071790	 3	 8
  47	 1	 51200	 (nil)  1337002243.901720	 1337002244.090990	 0.189270	 264.172848	 3	 8
  48	 1	 35840	 (nil)  1337002244.092638	 1337002244.216112	 0.123474	 283.460208	 3	 8
  49	 1	 17408	 (nil)  1337002244.216936	 1337002244.269945	 0.053009	 320.700071	 3	 8
  50	 2	 19456	 (nil)  1337002244.270830	 1337002244.338090	 0.067261	 282.482751	 3	 8
  51	 2	 47104	 (nil)  1337002244.340196	 1337002244.648363	 0.308167	 149.269954	 3	 8
  52	 2	 7168	 (nil)  1337002244.648759	 1337002244.668016	 0.019257	 363.511901	 3	 8
  53	 2	 43008	 (nil)  1337002244.669878	 1337002244.886217	 0.216339	 194.139653	 3	 8
  54	 2	 11264	 (nil)  1337002244.886796	 1337002244.923723	 0.036926	 297.890905	 3	 8
  55	 2	 1024	 (nil)  1337002244.923814	 1337002244.924669	 0.000854	 1170.285971	 3	 8
  56	 2	 22528	 (nil)  1337002244.925676	 1337002245.005876	 0.080200	 274.313551	 3	 8
  57	 2	 3072	 (nil)  1337002245.006059	 1337002245.008653	 0.002594	 1156.517710	 3	 8
  58	 2	 36864	 (nil)  1337002245.010240	 1337002245.228166	 0.217926	 165.193671	 3	 8
  59	 2	 23552	 (nil)  1337002245.229234	 1337002245.319078	 0.089844	 256.000000	 3	 8
  60	 2	 40960	 (nil)  1337002245.320879	 1337002245.500658	 0.179779	 222.495330	 3	 8
  61	 2	 10240	 (nil)  1337002245.501176	 1337002245.533708	 0.032532	 307.392142	 3	 8
  62	 2	 16384	 (nil)  1337002245.534471	 1337002245.590715	 0.056244	 284.475304	 3	 8
  63	 2	 13312	 (nil)  1337002245.591356	 1337002245.636247	 0.044891	 289.588038	 3	 8
  64	 2	 31744	 (nil)  1337002245.637651	 1337002245.797899	 0.160248	 193.450389	 3	 8
  65	 2	 8192	 (nil)  1337002245.798326	 1337002245.822008	 0.023682	 337.814428	 3	 8
  66	 2	 33792	 (nil)  1337002245.823595	 1337002245.984300	 0.160706	 205.344476	 3	 8
  67	 2	 21504	 (nil)  1337002245.985246	 1337002246.060319	 0.075073	 279.726826	 3	 8
  68	 2	 5120	 (nil)  1337002246.060564	 1337002246.064897	 0.004333	 1153.802842	 3	 8
  69	 2	 27648	 (nil)  1337002246.066118	 1337002246.159746	 0.093628	 288.375488	 3	 8
  70	 2	 50176	 (nil)  1337002246.161973	 1337002246.341844	 0.179871	 272.418051	 3	 8
  71	 2	 39936	 (nil)  1337002246.343706	 1337002246.483842	 0.140137	 278.299655	 3	 8
  72	 2	 20480	 (nil)  1337002246.484819	 1337002246.550066	 0.065247	 306.529462	 3	 8
  73	 2	 34816	 (nil)  1337002246.551652	 1337002246.672166	 0.120514	 282.125095	 3	 8
  74	 2	 37888	 (nil)  1337002246.673906	 1337002246.812852	 0.138947	 266.289484	 3	 8
  75	 2	 30720	 (nil)  1337002246.814256	 1337002246.919908	 0.105652	 283.951472	 3	 8
  76	 2	 26624	 (nil)  1337002246.921129	 1337002247.010820	 0.089691	 289.883628	 3	 8
  77	 2	 14336	 (nil)  1337002247.011522	 1337002247.050035	 0.038513	 363.511901	 3	 8
  78	 2	 4096	 (nil)  1337002247.050279	 1337002247.053728	 0.003448	 1159.928978	 3	 8
  79	 2	 45056	 (nil)  1337002247.055711	 1337002247.215013	 0.159302	 276.205362	 3	 8
  80	 2	 6144	 (nil)  1337002247.215379	 1337002247.220506	 0.005127	 1170.285743	 3	 8
  81	 2	 2048	 (nil)  1337002247.220659	 1337002247.222398	 0.001740	 1149.754355	 3	 8
  82	 2	 44032	 (nil)  1337002247.224321	 1337002247.384996	 0.160675	 267.620892	 3	 8
  83	 2	 48128	 (nil)  1337002247.387102	 1337002247.560503	 0.173401	 271.048222	 3	 8
  84	 2	 12288	 (nil)  1337002247.561143	 1337002247.589494	 0.028351	 423.268031	 3	 8
  85	 2	 24576	 (nil)  1337002247.590623	 1337002247.672044	 0.081421	 294.764616	 3	 8
  86	 2	 28672	 (nil)  1337002247.673357	 1337002247.770830	 0.097473	 287.258609	 3	 8
  87	 2	 32768	 (nil)  1337002247.772386	 1337002247.885759	 0.113373	 282.254640	 3	 8
  88	 2	 38912	 (nil)  1337002247.887529	 1337002248.022874	 0.135345	 280.763021	 3	 8
  89	 2	 25600	 (nil)  1337002248.024034	 1337002248.109880	 0.085846	 291.219340	 3	 8
  90	 2	 18432	 (nil)  1337002248.110734	 1337002248.167558	 0.056824	 316.769068	 3	 8
  91	 2	 49152	 (nil)  1337002248.169755	 1337002248.352373	 0.182617	 262.844918	 3	 8
  92	 2	 9216	 (nil)  1337002248.352861	 1337002248.364915	 0.012054	 746.612619	 3	 8
  93	 2	 15360	 (nil)  1337002248.365648	 1337002248.408891	 0.043243	 346.873694	 3	 8
  94	 2	 41984	 (nil)  1337002248.410783	 1337002248.561876	 0.151093	 271.356896	 3	 8
  95	 2	 46080	 (nil)  1337002248.563982	 1337002248.726854	 0.162872	 276.290051	 3	 8
  96	 2	 29696	 (nil)  1337002248.728197	 1337002248.829698	 0.101501	 285.710159	 3	 8
  97	 2	 51200	 (nil)  1337002248.832017	 1337002249.017656	 0.185638	 269.340784	 3	 8
  98	 2	 35840	 (nil)  1337002249.019273	 1337002249.146043	 0.126770	 276.090516	 3	 8
  99	 2	 17408	 (nil)  1337002249.146867	 1337002249.199358	 0.052490	 323.869770	 3	 8
  100	 4	 19456	 (nil)  1337002249.200212	 1337002249.263048	 0.062836	 302.375908	 3	 8
  101	 4	 47104	 (nil)  1337002249.265153	 1337002249.431016	 0.165863	 277.337259	 3	 8
  102	 4	 7168	 (nil)  1337002249.431413	 1337002249.437547	 0.006134	 1141.174167	 3	 8
  103	 4	 43008	 (nil)  1337002249.439409	 1337002249.589159	 0.149750	 280.467901	 3	 8
  104	 4	 11264	 (nil)  1337002249.589769	 1337002249.612779	 0.023010	 478.047743	 3	 8
  105	 4	 1024	 (nil)  1337002249.612871	 1337002249.613725	 0.000854	 1170.284602	 3	 8
  106	 4	 22528	 (nil)  1337002249.614702	 1337002249.690843	 0.076141	 288.936274	 3	 8
  107	 4	 3072	 (nil)  1337002249.691057	 1337002249.693651	 0.002594	 1156.517264	 3	 8
  108	 4	 36864	 (nil)  1337002249.695299	 1337002249.823442	 0.128143	 280.935460	 3	 8
  109	 4	 23552	 (nil)  1337002249.824510	 1337002249.902299	 0.077789	 295.670461	 3	 8
  110	 4	 40960	 (nil)  1337002249.904130	 1337002250.046587	 0.142456	 280.788346	 3	 8
  111	 4	 10240	 (nil)  1337002250.047105	 1337002250.064622	 0.017517	 570.871075	 3	 8
  112	 4	 16384	 (nil)  1337002250.065385	 1337002250.114183	 0.048798	 327.884931	 3	 8
  113	 4	 13312	 (nil)  1337002250.114824	 1337002250.148302	 0.033478	 388.317231	 3	 8
  114	 4	 31744	 (nil)  1337002250.149675	 1337002250.258836	 0.109161	 283.983229	 3	 8
  115	 4	 8192	 (nil)  1337002250.259264	 1337002250.269365	 0.010101	 791.975781	 3	 8
  116	 4	 33792	 (nil)  1337002250.270860	 1337002250.387376	 0.116516	 283.222628	 3	 8
  117	 4	 21504	 (nil)  1337002250.388353	 1337002250.460161	 0.071808	 292.447086	 3	 8
  118	 4	 5120	 (nil)  1337002250.460435	 1337002250.464769	 0.004333	 1153.802842	 3	 8
  119	 4	 27648	 (nil)  1337002250.466020	 1337002250.559556	 0.093536	 288.657752	 3	 8
  120	 4	 50176	 (nil)  1337002250.561754	 1337002250.736894	 0.175140	 279.775570	 3	 8
  121	 4	 39936	 (nil)  1337002250.738725	 1337002250.877916	 0.139191	 280.191186	 3	 8
  122	 4	 20480	 (nil)  1337002250.878892	 1337002250.944231	 0.065338	 306.099948	 3	 8
  123	 4	 34816	 (nil)  1337002250.945787	 1337002251.066026	 0.120239	 282.769543	 3	 8
  124	 4	 37888	 (nil)  1337002251.067705	 1337002251.198961	 0.131256	 281.891656	 3	 8
  125	 4	 30720	 (nil)  1337002251.200365	 1337002251.309740	 0.109375	 274.285712	 3	 8
  126	 4	 26624	 (nil)  1337002251.310960	 1337002251.400712	 0.089752	 289.686502	 3	 8
  127	 4	 14336	 (nil)  1337002251.401384	 1337002251.439958	 0.038574	 362.936707	 3	 8
  128	 4	 4096	 (nil)  1337002251.440202	 1337002251.443651	 0.003448	 1159.928978	 3	 8
  129	 4	 45056	 (nil)  1337002251.445665	 1337002251.670457	 0.224792	 195.736085	 3	 8
  130	 4	 6144	 (nil)  1337002251.670885	 1337002251.676286	 0.005402	 1110.779523	 3	 8
  131	 4	 2048	 (nil)  1337002251.676439	 1337002251.678239	 0.001801	 1110.779728	 3	 8
  132	 4	 44032	 (nil)  1337002251.680498	 1337002251.841508	 0.161011	 267.062925	 3	 8
  133	 4	 48128	 (nil)  1337002251.843736	 1337002252.011430	 0.167694	 280.272249	 3	 8
  134	 4	 12288	 (nil)  1337002252.012010	 1337002252.040330	 0.028320	 423.724130	 3	 8
  135	 4	 24576	 (nil)  1337002252.041460	 1337002252.123277	 0.081818	 293.335322	 3	 8
  136	 4	 28672	 (nil)  1337002252.124559	 1337002252.225694	 0.101135	 276.856973	 3	 8
  137	 4	 32768	 (nil)  1337002252.227159	 1337002252.340135	 0.112976	 283.245814	 3	 8
  138	 4	 38912	 (nil)  1337002252.341875	 1337002252.476823	 0.134949	 281.588418	 3	 8
  139	 4	 25600	 (nil)  1337002252.478014	 1337002252.564043	 0.086029	 290.599506	 3	 8
  140	 4	 18432	 (nil)  1337002252.564867	 1337002252.621751	 0.056885	 316.429182	 3	 8
  141	 4	 49152	 (nil)  1337002252.623918	 1337002252.795732	 0.171814	 279.371936	 3	 8
  142	 4	 9216	 (nil)  1337002252.796220	 1337002252.808519	 0.012299	 731.791562	 3	 8
  143	 4	 15360	 (nil)  1337002252.809251	 1337002252.853105	 0.043854	 342.045943	 3	 8
  144	 4	 41984	 (nil)  1337002252.854967	 1337002253.001024	 0.146057	 280.712075	 3	 8
  145	 4	 46080	 (nil)  1337002253.003160	 1337002253.163591	 0.160431	 280.494579	 3	 8
  146	 4	 29696	 (nil)  1337002253.164934	 1337002253.266130	 0.101196	 286.571771	 3	 8
  147	 4	 51200	 (nil)  1337002253.268358	 1337002253.448564	 0.180206	 277.459780	 3	 8
  148	 4	 35840	 (nil)  1337002253.450181	 1337002253.574388	 0.124207	 281.788698	 3	 8
  149	 4	 17408	 (nil)  1337002253.575243	 1337002253.627733	 0.052490	 323.869776	 3	 8
  150	 1	 17408	 (nil)  1337002253.628526	 1337002253.682024	 0.053497	 317.772957	 3	 8
  151	 1	 50176	 (nil)  1337002253.684251	 1337002253.872941	 0.188690	 259.684941	 3	 8
  152	 1	 5120	 (nil)  1337002253.873277	 1337002253.877550	 0.004272	 1170.285971	 3	 8
  153	 1	 14336	 (nil)  1337002253.878221	 1337002253.917894	 0.039673	 352.886168	 3	 8
  154	 1	 1024	 (nil)  1337002253.918016	 1337002253.918870	 0.000854	 1170.285971	 3	 8
  155	 1	 22528	 (nil)  1337002253.919847	 1337002253.994127	 0.074280	 296.177482	 3	 8
  156	 1	 46080	 (nil)  1337002253.996202	 1337002254.159318	 0.163116	 275.876524	 3	 8
  157	 1	 26624	 (nil)  1337002254.160539	 1337002254.250383	 0.089844	 289.391308	 3	 8
  158	 1	 16384	 (nil)  1337002254.251115	 1337002254.300249	 0.049133	 325.644712	 3	 8
  159	 1	 39936	 (nil)  1337002254.302049	 1337002254.440813	 0.138763	 281.053883	 3	 8
  160	 1	 18432	 (nil)  1337002254.441698	 1337002254.498399	 0.056702	 317.451018	 3	 8
  161	 1	 2048	 (nil)  1337002254.498552	 1337002254.500261	 0.001709	 1170.285971	 3	 8
  162	 1	 7168	 (nil)  1337002254.500597	 1337002254.506700	 0.006104	 1146.879742	 3	 8
  163	 1	 21504	 (nil)  1337002254.507646	 1337002254.577898	 0.070251	 298.926155	 3	 8
  164	 1	 36864	 (nil)  1337002254.579545	 1337002254.708269	 0.128723	 279.669983	 3	 8
  165	 1	 49152	 (nil)  1337002254.710435	 1337002254.886735	 0.176300	 272.263114	 3	 8
  166	 1	 48128	 (nil)  1337002254.888902	 1337002255.058885	 0.169983	 276.498380	 3	 8
  167	 1	 20480	 (nil)  1337002255.059862	 1337002255.125047	 0.065186	 306.816484	 3	 8
  168	 1	 6144	 (nil)  1337002255.125383	 1337002255.130510	 0.005127	 1170.285743	 3	 8
  169	 1	 45056	 (nil)  1337002255.132524	 1337002255.290697	 0.158173	 278.177118	 3	 8
  170	 1	 9216	 (nil)  1337002255.291185	 1337002255.304063	 0.012878	 698.843654	 3	 8
  171	 1	 12288	 (nil)  1337002255.304643	 1337002255.334337	 0.029694	 404.127421	 3	 8
  172	 1	 41984	 (nil)  1337002255.336229	 1337002255.483720	 0.147491	 277.982202	 3	 8
  173	 1	 32768	 (nil)  1337002255.485185	 1337002255.597703	 0.112518	 284.398160	 3	 8
  174	 1	 23552	 (nil)  1337002255.598802	 1337002255.676378	 0.077576	 296.484656	 3	 8
  175	 1	 28672	 (nil)  1337002255.677660	 1337002255.775621	 0.097961	 285.826791	 3	 8
  176	 1	 29696	 (nil)  1337002255.776994	 1337002255.878343	 0.101349	 286.140322	 3	 8
  177	 1	 15360	 (nil)  1337002255.879045	 1337002255.923540	 0.044495	 337.119341	 3	 8
  178	 1	 24576	 (nil)  1337002255.924638	 1337002256.006151	 0.081512	 294.433539	 3	 8
  179	 1	 31744	 (nil)  1337002256.007555	 1337002256.118150	 0.110596	 280.300221	 3	 8
  180	 1	 4096	 (nil)  1337002256.118425	 1337002256.121873	 0.003448	 1159.928978	 3	 8
  181	 1	 8192	 (nil)  1337002256.122270	 1337002256.129167	 0.006897	 1159.929314	 3	 8
  182	 1	 10240	 (nil)  1337002256.129655	 1337002256.147600	 0.017944	 557.278941	 3	 8
  183	 1	 19456	 (nil)  1337002256.148485	 1337002256.210466	 0.061981	 306.544560	 3	 8
  184	 1	 43008	 (nil)  1337002256.212389	 1337002256.368150	 0.155762	 269.642636	 3	 8
  185	 1	 35840	 (nil)  1337002256.369737	 1337002256.493791	 0.124054	 282.135302	 3	 8
  186	 1	 37888	 (nil)  1337002256.495439	 1337002256.626787	 0.131348	 281.695166	 3	 8
  187	 1	 40960	 (nil)  1337002256.628679	 1337002256.772295	 0.143616	 278.521034	 3	 8
  188	 1	 11264	 (nil)  1337002256.772874	 1337002256.797502	 0.024628	 446.651825	 3	 8
  189	 1	 30720	 (nil)  1337002256.798906	 1337002256.904161	 0.105255	 285.021748	 3	 8
  190	 1	 25600	 (nil)  1337002256.905321	 1337002256.990892	 0.085571	 292.154059	 3	 8
  191	 1	 13312	 (nil)  1337002256.991533	 1337002257.026506	 0.034973	 371.713803	 3	 8
  192	 1	 47104	 (nil)  1337002257.028581	 1337002257.193864	 0.165283	 278.310191	 3	 8
  193	 1	 27648	 (nil)  1337002257.195146	 1337002257.288988	 0.093842	 287.719027	 3	 8
  194	 1	 44032	 (nil)  1337002257.290971	 1337002257.444475	 0.153503	 280.124059	 3	 8
  195	 1	 38912	 (nil)  1337002257.446245	 1337002257.581712	 0.135468	 280.510023	 3	 8
  196	 1	 3072	 (nil)  1337002257.581956	 1337002257.584550	 0.002594	 1156.517264	 3	 8
  197	 1	 34816	 (nil)  1337002257.586076	 1337002257.706743	 0.120667	 281.768336	 3	 8
  198	 1	 33792	 (nil)  1337002257.708299	 1337002257.825273	 0.116974	 282.114271	 3	 8
  199	 1	 51200	 (nil)  1337002257.827562	 1337002258.008165	 0.180603	 276.850288	 3	 8
  200	 2	 17408	 (nil)  1337002258.009019	 1337002258.061510	 0.052490	 323.869776	 3	 8
  201	 2	 50176	 (nil)  1337002258.063768	 1337002258.239122	 0.175354	 279.434737	 3	 8
  202	 2	 5120	 (nil)  1337002258.239427	 1337002258.243730	 0.004303	 1161.985415	 3	 8
  203	 2	 14336	 (nil)  1337002258.244371	 1337002258.281969	 0.037598	 372.363649	 3	 8
  204	 2	 1024	 (nil)  1337002258.282060	 1337002258.282945	 0.000885	 1129.930735	 3	 8
  205	 2	 22528	 (nil)  1337002258.283952	 1337002258.357744	 0.073792	 298.137303	 3	 8
  206	 2	 46080	 (nil)  1337002258.359788	 1337002258.524980	 0.165192	 272.410863	 3	 8
  207	 2	 26624	 (nil)  1337002258.526170	 1337002258.615892	 0.089722	 289.785030	 3	 8
  208	 2	 16384	 (nil)  1337002258.616655	 1337002258.663896	 0.047241	 338.687331	 3	 8
  209	 2	 39936	 (nil)  1337002258.665697	 1337002258.807542	 0.141846	 274.946644	 3	 8
  210	 2	 18432	 (nil)  1337002258.808397	 1337002258.865465	 0.057068	 315.413904	 3	 8
  211	 2	 2048	 (nil)  1337002258.865617	 1337002258.867357	 0.001740	 1149.754355	 3	 8
  212	 2	 7168	 (nil)  1337002258.867692	 1337002258.873735	 0.006042	 1158.464545	 3	 8
  213	 2	 21504	 (nil)  1337002258.874681	 1337002258.943742	 0.069061	 304.077774	 3	 8
  214	 2	 36864	 (nil)  1337002258.945421	 1337002259.073564	 0.128143	 280.935462	 3	 8
  215	 2	 49152	 (nil)  1337002259.075700	 1337002259.249345	 0.173645	 276.426011	 3	 8
  216	 2	 48128	 (nil)  1337002259.251451	 1337002259.421556	 0.170105	 276.299963	 3	 8
  217	 2	 20480	 (nil)  1337002259.422533	 1337002259.487962	 0.065430	 305.671644	 3	 8
  218	 2	 6144	 (nil)  1337002259.488267	 1337002259.493425	 0.005157	 1163.360654	 3	 8
  219	 2	 45056	 (nil)  1337002259.495439	 1337002259.655809	 0.160370	 274.365747	 3	 8
  220	 2	 9216	 (nil)  1337002259.656297	 1337002259.668565	 0.012268	 733.611905	 3	 8
  221	 2	 12288	 (nil)  1337002259.669176	 1337002259.696764	 0.027588	 434.973430	 3	 8
  222	 2	 41984	 (nil)  1337002259.698625	 1337002259.849870	 0.151245	 271.083132	 3	 8
  223	 2	 32768	 (nil)  1337002259.851396	 1337002259.964128	 0.112732	 283.859235	 3	 8
  224	 2	 23552	 (nil)  1337002259.965227	 1337002260.043260	 0.078033	 294.745406	 3	 8
  225	 2	 28672	 (nil)  1337002260.044542	 1337002260.141893	 0.097351	 287.618809	 3	 8
  226	 2	 29696	 (nil)  1337002260.143266	 1337002260.244401	 0.101135	 286.744719	 3	 8
  227	 2	 15360	 (nil)  1337002260.245134	 1337002260.287614	 0.042480	 353.103463	 3	 8
  228	 2	 24576	 (nil)  1337002260.288743	 1337002260.370561	 0.081818	 293.335326	 3	 8
  229	 2	 31744	 (nil)  1337002260.371965	 1337002260.481248	 0.109283	 283.666013	 3	 8
  230	 2	 4096	 (nil)  1337002260.481523	 1337002260.484972	 0.003448	 1159.928978	 3	 8
  231	 2	 8192	 (nil)  1337002260.485368	 1337002260.492357	 0.006989	 1144.733525	 3	 8
  232	 2	 10240	 (nil)  1337002260.492845	 1337002260.510362	 0.017517	 570.871108	 3	 8
  233	 2	 19456	 (nil)  1337002260.511247	 1337002260.572557	 0.061310	 309.901441	 3	 8
  234	 2	 43008	 (nil)  1337002260.574449	 1337002260.727067	 0.152618	 275.196161	 3	 8
  235	 2	 35840	 (nil)  1337002260.728715	 1337002260.852891	 0.124176	 281.857951	 3	 8
  236	 2	 37888	 (nil)  1337002260.854600	 1337002260.986345	 0.131744	 280.846884	 3	 8
  237	 2	 40960	 (nil)  1337002260.988145	 1337002261.133928	 0.145782	 274.381408	 3	 8
  238	 2	 11264	 (nil)  1337002261.134477	 1337002261.157426	 0.022949	 479.319165	 3	 8
  239	 2	 30720	 (nil)  1337002261.158800	 1337002261.263933	 0.105133	 285.352684	 3	 8
  240	 2	 25600	 (nil)  1337002261.265031	 1337002261.350786	 0.085754	 291.530248	 3	 8
  241	 2	 13312	 (nil)  1337002261.351427	 1337002261.384874	 0.033447	 388.671540	 3	 8
  242	 2	 47104	 (nil)  1337002261.386980	 1337002261.565385	 0.178406	 257.839206	 3	 8
  243	 2	 27648	 (nil)  1337002261.566637	 1337002261.660203	 0.093567	 288.563599	 3	 8
  244	 2	 44032	 (nil)  1337002261.662126	 1337002261.877580	 0.215454	 199.578471	 3	 8
  245	 2	 38912	 (nil)  1337002261.879625	 1337002262.043993	 0.164368	 231.189008	 3	 8
  246	 2	 3072	 (nil)  1337002262.044267	 1337002262.046831	 0.002563	 1170.285971	 3	 8
  247	 2	 34816	 (nil)  1337002262.048357	 1337002262.170335	 0.121979	 278.737050	 3	 8
  248	 2	 33792	 (nil)  1337002262.171892	 1337002262.289323	 0.117432	 281.014555	 3	 8
  249	 2	 51200	 (nil)  1337002262.291612	 1337002262.474657	 0.183044	 273.157717	 3	 8
  250	 4	 17408	 (nil)  1337002262.475511	 1337002262.528123	 0.052612	 323.118334	 3	 8
  251	 4	 50176	 (nil)  1337002262.530351	 1337002262.705186	 0.174835	 280.263919	 3	 8
  252	 4	 5120	 (nil)  1337002262.705492	 1337002262.709795	 0.004303	 1161.985955	 3	 8
  253	 4	 14336	 (nil)  1337002262.710435	 1337002262.749162	 0.038727	 361.506714	 3	 8
  254	 4	 1024	 (nil)  1337002262.749284	 1337002262.750139	 0.000854	 1170.284602	 3	 8
  255	 4	 22528	 (nil)  1337002262.751115	 1337002262.824998	 0.073883	 297.767855	 3	 8
  256	 4	 46080	 (nil)  1337002262.827043	 1337002262.987840	 0.160797	 279.855764	 3	 8
  257	 4	 26624	 (nil)  1337002262.989091	 1337002263.078783	 0.089691	 289.883634	 3	 8
  258	 4	 16384	 (nil)  1337002263.079545	 1337002263.127611	 0.048065	 332.881253	 3	 8
  259	 4	 39936	 (nil)  1337002263.129350	 1337002263.268114	 0.138763	 281.053881	 3	 8
  260	 4	 18432	 (nil)  1337002263.268968	 1337002263.327226	 0.058258	 308.970145	 3	 8
  261	 4	 2048	 (nil)  1337002263.327379	 1337002263.329088	 0.001709	 1170.285971	 3	 8
  262	 4	 7168	 (nil)  1337002263.329423	 1337002263.335435	 0.006012	 1164.344963	 3	 8
  263	 4	 21504	 (nil)  1337002263.336442	 1337002263.406084	 0.069641	 301.546018	 3	 8
  264	 4	 36864	 (nil)  1337002263.407732	 1337002263.535600	 0.127869	 281.538901	 3	 8
  265	 4	 49152	 (nil)  1337002263.537797	 1337002263.710069	 0.172272	 278.629585	 3	 8
  266	 4	 48128	 (nil)  1337002263.712266	 1337002263.880907	 0.168640	 278.699962	 3	 8
  267	 4	 20480	 (nil)  1337002263.881914	 1337002263.949144	 0.067230	 297.485250	 3	 8
  268	 4	 6144	 (nil)  1337002263.949480	 1337002263.954698	 0.005219	 1149.754135	 3	 8
  269	 4	 45056	 (nil)  1337002263.956743	 1337002264.113664	 0.156921	 280.395175	 3	 8
  270	 4	 9216	 (nil)  1337002264.114152	 1337002264.126512	 0.012360	 728.177786	 3	 8
  271	 4	 12288	 (nil)  1337002264.127092	 1337002264.155351	 0.028259	 424.639329	 3	 8
  272	 4	 41984	 (nil)  1337002264.157182	 1337002264.303087	 0.145905	 281.005644	 3	 8
  273	 4	 32768	 (nil)  1337002264.304582	 1337002264.417406	 0.112823	 283.628889	 3	 8
  274	 4	 23552	 (nil)  1337002264.418474	 1337002264.498888	 0.080414	 286.020495	 3	 8
  275	 4	 28672	 (nil)  1337002264.500169	 1337002264.597490	 0.097321	 287.709002	 3	 8
  276	 4	 29696	 (nil)  1337002264.598833	 1337002264.699968	 0.101135	 286.744722	 3	 8
  277	 4	 15360	 (nil)  1337002264.700700	 1337002264.744096	 0.043396	 345.653985	 3	 8
  278	 4	 24576	 (nil)  1337002264.745225	 1337002264.829759	 0.084534	 283.910474	 3	 8
  279	 4	 31744	 (nil)  1337002264.831193	 1337002264.940385	 0.109192	 283.903856	 3	 8
  280	 4	 4096	 (nil)  1337002264.940660	 1337002264.944108	 0.003448	 1159.928978	 3	 8
  281	 4	 8192	 (nil)  1337002264.944505	 1337002264.951463	 0.006958	 1149.754520	 3	 8
  282	 4	 10240	 (nil)  1337002264.951921	 1337002264.969255	 0.017334	 576.901421	 3	 8
  283	 4	 19456	 (nil)  1337002264.970140	 1337002265.031328	 0.061188	 310.519707	 3	 8
  284	 4	 43008	 (nil)  1337002265.033281	 1337002265.182786	 0.149506	 280.925902	 3	 8
  285	 4	 35840	 (nil)  1337002265.184373	 1337002265.308458	 0.124084	 282.065916	 3	 8
  286	 4	 37888	 (nil)  1337002265.310136	 1337002265.441545	 0.131409	 281.564328	 3	 8
  287	 4	 40960	 (nil)  1337002265.443407	 1337002265.585893	 0.142487	 280.728206	 3	 8
  288	 4	 11264	 (nil)  1337002265.586473	 1337002265.609422	 0.022949	 479.319165	 3	 8
  289	 4	 30720	 (nil)  1337002265.610795	 1337002265.715684	 0.104889	 286.016872	 3	 8
  290	 4	 25600	 (nil)  1337002265.716844	 1337002265.805986	 0.089142	 280.451899	 3	 8
  291	 4	 13312	 (nil)  1337002265.806657	 1337002265.840135	 0.033478	 388.317231	 3	 8
  292	 4	 47104	 (nil)  1337002265.842210	 1337002266.006395	 0.164185	 280.172490	 3	 8
  293	 4	 27648	 (nil)  1337002266.007646	 1337002266.101182	 0.093536	 288.657749	 3	 8
  294	 4	 44032	 (nil)  1337002266.103197	 1337002266.257127	 0.153931	 279.346552	 3	 8
  295	 4	 38912	 (nil)  1337002266.258897	 1337002266.393846	 0.134949	 281.588423	 3	 8
  296	 4	 3072	 (nil)  1337002266.394060	 1337002266.396623	 0.002563	 1170.285515	 3	 8
  297	 4	 34816	 (nil)  1337002266.398210	 1337002266.518632	 0.120422	 282.339583	 3	 8
  298	 4	 33792	 (nil)  1337002266.520128	 1337002266.636613	 0.116486	 283.296829	 3	 8
  299	 4	 51200	 (nil)  1337002266.638902	 1337002266.818040	 0.179138	 279.114141	 3	 8
# ID of this measurement = 142123008; Total time: 27.063385 sec
